test_run_dir/Single_Cycle_CPU_should_recursively_calculate_Fibonacci10/TestTopModule.vcd
$version Generated by VerilatedVcd $end
$date Wed Nov 22 11:30:59 2023
 $end
$timescale   1ns $end

 $scope module TOP $end
  $var wire  1 O* clock $end
  $var wire 32 _* io_mem_debug_read_address [31:0] $end
  $var wire 32 w* io_mem_debug_read_data [31:0] $end
  $var wire  5 g* io_regs_debug_read_address [4:0] $end
  $var wire 32 o* io_regs_debug_read_data [31:0] $end
  $var wire  1 W* reset $end
  $scope module TestTopModule $end
   $var wire  2 C$ CPU_clkdiv [1:0] $end
   $var wire  1 O* clock $end
   $var wire  1 ;$ cpu_clock $end
   $var wire  5 g* cpu_io_debug_read_address [4:0] $end
   $var wire 32 !+ cpu_io_debug_read_data [31:0] $end
   $var wire 32 +$ cpu_io_instruction [31:0] $end
   $var wire 32 9' cpu_io_instruction_address [31:0] $end
   $var wire  1 ?* cpu_io_instruction_valid $end
   $var wire 32 !# cpu_io_memory_bundle_address [31:0] $end
   $var wire 32 S cpu_io_memory_bundle_read_data [31:0] $end
   $var wire 32 7" cpu_io_memory_bundle_write_data [31:0] $end
   $var wire  1 K cpu_io_memory_bundle_write_enable $end
   $var wire  1 ?" cpu_io_memory_bundle_write_strobe_0 $end
   $var wire  1 G" cpu_io_memory_bundle_write_strobe_1 $end
   $var wire  1 O" cpu_io_memory_bundle_write_strobe_2 $end
   $var wire  1 W" cpu_io_memory_bundle_write_strobe_3 $end
   $var wire  1 W* cpu_reset $end
   $var wire  1 O* instruction_rom_clock $end
   $var wire 32 '* instruction_rom_io_address [31:0] $end
   $var wire 32 ; instruction_rom_io_data [31:0] $end
   $var wire 32 _* io_mem_debug_read_address [31:0] $end
   $var wire 32 w* io_mem_debug_read_data [31:0] $end
   $var wire  5 g* io_regs_debug_read_address [4:0] $end
   $var wire 32 o* io_regs_debug_read_data [31:0] $end
   $var wire  1 O* mem_clock $end
   $var wire 32 o" mem_io_bundle_address [31:0] $end
   $var wire 32 #$ mem_io_bundle_read_data [31:0] $end
   $var wire 32 w" mem_io_bundle_write_data [31:0] $end
   $var wire  1 3 mem_io_bundle_write_enable $end
   $var wire  1 u! mem_io_bundle_write_strobe_0 $end
   $var wire  1 }! mem_io_bundle_write_strobe_1 $end
   $var wire  1 '" mem_io_bundle_write_strobe_2 $end
   $var wire  1 /" mem_io_bundle_write_strobe_3 $end
   $var wire 32 _* mem_io_debug_read_address [31:0] $end
   $var wire 32 3$ mem_io_debug_read_data [31:0] $end
   $var wire 32 +$ mem_io_instruction [31:0] $end
   $var wire 32 9' mem_io_instruction_address [31:0] $end
   $var wire  1 W* reset $end
   $var wire  1 O* rom_loader_clock $end
   $var wire 32 /* rom_loader_io_bundle_address [31:0] $end
   $var wire 32 C rom_loader_io_bundle_write_data [31:0] $end
   $var wire  1 7* rom_loader_io_bundle_write_enable $end
   $var wire  1 7* rom_loader_io_bundle_write_strobe_0 $end
   $var wire  1 7* rom_loader_io_bundle_write_strobe_1 $end
   $var wire  1 7* rom_loader_io_bundle_write_strobe_2 $end
   $var wire  1 7* rom_loader_io_bundle_write_strobe_3 $end
   $var wire  1 ?* rom_loader_io_load_finished $end
   $var wire 32 '* rom_loader_io_rom_address [31:0] $end
   $var wire 32 ; rom_loader_io_rom_data [31:0] $end
   $var wire  1 W* rom_loader_reset $end
   $scope module cpu $end
    $var wire  1 ;$ clock $end
    $var wire  1 -! ex_io_aluop2_source $end
    $var wire 32 + ex_io_if_jump_address [31:0] $end
    $var wire  1 _" ex_io_if_jump_flag $end
    $var wire 32 %! ex_io_immediate [31:0] $end
    $var wire 32 { ex_io_instruction [31:0] $end
    $var wire 32 9' ex_io_instruction_address [31:0] $end
    $var wire 32 i# ex_io_mem_alu_result [31:0] $end
    $var wire 32 Y# ex_io_reg1_data [31:0] $end
    $var wire 32 a# ex_io_reg2_data [31:0] $end
    $var wire  1 -! id_io_ex_aluop2_source $end
    $var wire 32 %! id_io_ex_immediate [31:0] $end
    $var wire 32 { id_io_instruction [31:0] $end
    $var wire  1 5! id_io_memory_read_enable $end
    $var wire  1 =! id_io_memory_write_enable $end
    $var wire  5 c id_io_reg_write_address [4:0] $end
    $var wire  1 [ id_io_reg_write_enable $end
    $var wire  5 k id_io_regs_reg1_read_address [4:0] $end
    $var wire  5 s id_io_regs_reg2_read_address [4:0] $end
    $var wire  2 E! id_io_wb_reg_write_source [1:0] $end
    $var wire  1 # inst_fetch_clock $end
    $var wire 32 { inst_fetch_io_instruction [31:0] $end
    $var wire 32 9' inst_fetch_io_instruction_address [31:0] $end
    $var wire 32 +$ inst_fetch_io_instruction_read_data [31:0] $end
    $var wire  1 ?* inst_fetch_io_instruction_valid $end
    $var wire 32 + inst_fetch_io_jump_address_id [31:0] $end
    $var wire  1 _" inst_fetch_io_jump_flag_id $end
    $var wire  1 W* inst_fetch_reset $end
    $var wire  5 g* io_debug_read_address [4:0] $end
    $var wire 32 !+ io_debug_read_data [31:0] $end
    $var wire 32 +$ io_instruction [31:0] $end
    $var wire 32 9' io_instruction_address [31:0] $end
    $var wire  1 ?* io_instruction_valid $end
    $var wire 32 !# io_memory_bundle_address [31:0] $end
    $var wire 32 S io_memory_bundle_read_data [31:0] $end
    $var wire 32 7" io_memory_bundle_write_data [31:0] $end
    $var wire  1 K io_memory_bundle_write_enable $end
    $var wire  1 ?" io_memory_bundle_write_strobe_0 $end
    $var wire  1 G" io_memory_bundle_write_strobe_1 $end
    $var wire  1 O" io_memory_bundle_write_strobe_2 $end
    $var wire  1 W" io_memory_bundle_write_strobe_3 $end
    $var wire 32 i# mem_io_alu_result [31:0] $end
    $var wire  3 M! mem_io_funct3 [2:0] $end
    $var wire 32 i# mem_io_memory_bundle_address [31:0] $end
    $var wire 32 S mem_io_memory_bundle_read_data [31:0] $end
    $var wire 32 7" mem_io_memory_bundle_write_data [31:0] $end
    $var wire  1 K mem_io_memory_bundle_write_enable $end
    $var wire  1 ?" mem_io_memory_bundle_write_strobe_0 $end
    $var wire  1 G" mem_io_memory_bundle_write_strobe_1 $end
    $var wire  1 O" mem_io_memory_bundle_write_strobe_2 $end
    $var wire  1 W" mem_io_memory_bundle_write_strobe_3 $end
    $var wire  1 5! mem_io_memory_read_enable $end
    $var wire  1 =! mem_io_memory_write_enable $end
    $var wire 32 a# mem_io_reg2_data [31:0] $end
    $var wire 32 g" mem_io_wb_memory_read_data [31:0] $end
    $var wire  1 # regs_clock $end
    $var wire  5 g* regs_io_debug_read_address [4:0] $end
    $var wire 32 !+ regs_io_debug_read_data [31:0] $end
    $var wire  5 k regs_io_read_address1 [4:0] $end
    $var wire  5 s regs_io_read_address2 [4:0] $end
    $var wire 32 Y# regs_io_read_data1 [31:0] $end
    $var wire 32 a# regs_io_read_data2 [31:0] $end
    $var wire  5 c regs_io_write_address [4:0] $end
    $var wire 32 Q# regs_io_write_data [31:0] $end
    $var wire  1 [ regs_io_write_enable $end
    $var wire  1 W* regs_reset $end
    $var wire  1 W* reset $end
    $var wire 32 i# wb_io_alu_result [31:0] $end
    $var wire 32 9' wb_io_instruction_address [31:0] $end
    $var wire 32 g" wb_io_memory_read_data [31:0] $end
    $var wire 32 Q# wb_io_regs_write_data [31:0] $end
    $var wire  2 E! wb_io_regs_write_source [1:0] $end
    $scope module ex $end
     $var wire  4 e! alu_ctrl_io_alu_funct [3:0] $end
     $var wire  3 M! alu_ctrl_io_funct3 [2:0] $end
     $var wire  7 m! alu_ctrl_io_funct7 [6:0] $end
     $var wire  7 U! alu_ctrl_io_opcode [6:0] $end
     $var wire  4 e! alu_io_func [3:0] $end
     $var wire 32 Y# alu_io_op1 [31:0] $end
     $var wire 32 q# alu_io_op2 [31:0] $end
     $var wire 32 i# alu_io_result [31:0] $end
     $var wire  3 M! funct3 [2:0] $end
     $var wire  1 -! io_aluop2_source $end
     $var wire 32 + io_if_jump_address [31:0] $end
     $var wire  1 _" io_if_jump_flag $end
     $var wire 32 %! io_immediate [31:0] $end
     $var wire 32 { io_instruction [31:0] $end
     $var wire 32 9' io_instruction_address [31:0] $end
     $var wire 32 i# io_mem_alu_result [31:0] $end
     $var wire 32 Y# io_reg1_data [31:0] $end
     $var wire 32 a# io_reg2_data [31:0] $end
     $var wire  7 U! opcode [6:0] $end
     $scope module alu $end
      $var wire  4 e! io_func [3:0] $end
      $var wire 32 Y# io_op1 [31:0] $end
      $var wire 32 q# io_op2 [31:0] $end
      $var wire 32 i# io_result [31:0] $end
     $upscope $end
     $scope module alu_ctrl $end
      $var wire  4 e! io_alu_funct [3:0] $end
      $var wire  3 M! io_funct3 [2:0] $end
      $var wire  7 m! io_funct7 [6:0] $end
      $var wire  7 U! io_opcode [6:0] $end
     $upscope $end
    $upscope $end
    $scope module id $end
     $var wire  1 -! io_ex_aluop2_source $end
     $var wire 32 %! io_ex_immediate [31:0] $end
     $var wire 32 { io_instruction [31:0] $end
     $var wire  1 5! io_memory_read_enable $end
     $var wire  1 =! io_memory_write_enable $end
     $var wire  5 c io_reg_write_address [4:0] $end
     $var wire  1 [ io_reg_write_enable $end
     $var wire  5 k io_regs_reg1_read_address [4:0] $end
     $var wire  5 s io_regs_reg2_read_address [4:0] $end
     $var wire  2 E! io_wb_reg_write_source [1:0] $end
     $var wire  7 U! opcode [6:0] $end
     $var wire  5 c rd [4:0] $end
     $var wire  5 ]! rs1 [4:0] $end
    $upscope $end
    $scope module inst_fetch $end
     $var wire  1 # clock $end
     $var wire 32 { io_instruction [31:0] $end
     $var wire 32 9' io_instruction_address [31:0] $end
     $var wire 32 +$ io_instruction_read_data [31:0] $end
     $var wire  1 ?* io_instruction_valid $end
     $var wire 32 + io_jump_address_id [31:0] $end
     $var wire  1 _" io_jump_flag_id $end
     $var wire 32 9' pc [31:0] $end
     $var wire  1 W* reset $end
    $upscope $end
    $scope module mem $end
     $var wire 32 i# io_alu_result [31:0] $end
     $var wire  3 M! io_funct3 [2:0] $end
     $var wire 32 i# io_memory_bundle_address [31:0] $end
     $var wire 32 S io_memory_bundle_read_data [31:0] $end
     $var wire 32 7" io_memory_bundle_write_data [31:0] $end
     $var wire  1 K io_memory_bundle_write_enable $end
     $var wire  1 ?" io_memory_bundle_write_strobe_0 $end
     $var wire  1 G" io_memory_bundle_write_strobe_1 $end
     $var wire  1 O" io_memory_bundle_write_strobe_2 $end
     $var wire  1 W" io_memory_bundle_write_strobe_3 $end
     $var wire  1 5! io_memory_read_enable $end
     $var wire  1 =! io_memory_write_enable $end
     $var wire 32 a# io_reg2_data [31:0] $end
     $var wire 32 g" io_wb_memory_read_data [31:0] $end
     $var wire  2 y# mem_address_index [1:0] $end
    $upscope $end
    $scope module regs $end
     $var wire  1 # clock $end
     $var wire  5 g* io_debug_read_address [4:0] $end
     $var wire 32 !+ io_debug_read_data [31:0] $end
     $var wire  5 k io_read_address1 [4:0] $end
     $var wire  5 s io_read_address2 [4:0] $end
     $var wire 32 Y# io_read_data1 [31:0] $end
     $var wire 32 a# io_read_data2 [31:0] $end
     $var wire  5 c io_write_address [4:0] $end
     $var wire 32 Q# io_write_data [31:0] $end
     $var wire  1 [ io_write_enable $end
     $var wire 32 A' registers_0 [31:0] $end
     $var wire 32 I' registers_1 [31:0] $end
     $var wire 32 3( registers_10 [31:0] $end
     $var wire 32 ;( registers_11 [31:0] $end
     $var wire 32 C( registers_12 [31:0] $end
     $var wire 32 K( registers_13 [31:0] $end
     $var wire 32 S( registers_14 [31:0] $end
     $var wire 32 [( registers_15 [31:0] $end
     $var wire 32 c( registers_16 [31:0] $end
     $var wire 32 k( registers_17 [31:0] $end
     $var wire 32 s( registers_18 [31:0] $end
     $var wire 32 {( registers_19 [31:0] $end
     $var wire 32 Q' registers_2 [31:0] $end
     $var wire 32 %) registers_20 [31:0] $end
     $var wire 32 -) registers_21 [31:0] $end
     $var wire 32 5) registers_22 [31:0] $end
     $var wire 32 =) registers_23 [31:0] $end
     $var wire 32 E) registers_24 [31:0] $end
     $var wire 32 M) registers_25 [31:0] $end
     $var wire 32 U) registers_26 [31:0] $end
     $var wire 32 ]) registers_27 [31:0] $end
     $var wire 32 e) registers_28 [31:0] $end
     $var wire 32 m) registers_29 [31:0] $end
     $var wire 32 Y' registers_3 [31:0] $end
     $var wire 32 u) registers_30 [31:0] $end
     $var wire 32 }) registers_31 [31:0] $end
     $var wire 32 a' registers_4 [31:0] $end
     $var wire 32 i' registers_5 [31:0] $end
     $var wire 32 q' registers_6 [31:0] $end
     $var wire 32 y' registers_7 [31:0] $end
     $var wire 32 #( registers_8 [31:0] $end
     $var wire 32 +( registers_9 [31:0] $end
     $var wire  1 W* reset $end
    $upscope $end
    $scope module wb $end
     $var wire 32 i# io_alu_result [31:0] $end
     $var wire 32 9' io_instruction_address [31:0] $end
     $var wire 32 g" io_memory_read_data [31:0] $end
     $var wire 32 Q# io_regs_write_data [31:0] $end
     $var wire  2 E! io_regs_write_source [1:0] $end
    $upscope $end
   $upscope $end
   $scope module instruction_rom $end
    $var wire  1 O* clock $end
    $var wire 32 1+ initvar [31:0] $end
    $var wire 32 '* io_address [31:0] $end
    $var wire 32 ; io_data [31:0] $end
    $var wire  8 G* mem_io_data_MPORT_addr [7:0] $end
    $var wire 32 ; mem_io_data_MPORT_data [31:0] $end
    $var wire  1 )+ mem_io_data_MPORT_en $end
   $upscope $end
   $scope module mem $end
    $var wire  1 O* clock $end
    $var wire 32 o" io_bundle_address [31:0] $end
    $var wire 32 #$ io_bundle_read_data [31:0] $end
    $var wire 16 o& io_bundle_read_data_hi [15:0] $end
    $var wire 16 g& io_bundle_read_data_lo [15:0] $end
    $var wire 32 w" io_bundle_write_data [31:0] $end
    $var wire  1 3 io_bundle_write_enable $end
    $var wire  1 u! io_bundle_write_strobe_0 $end
    $var wire  1 }! io_bundle_write_strobe_1 $end
    $var wire  1 '" io_bundle_write_strobe_2 $end
    $var wire  1 /" io_bundle_write_strobe_3 $end
    $var wire 32 _* io_debug_read_address [31:0] $end
    $var wire 32 3$ io_debug_read_data [31:0] $end
    $var wire 16 !' io_debug_read_data_hi [15:0] $end
    $var wire 16 w& io_debug_read_data_lo [15:0] $end
    $var wire 32 +$ io_instruction [31:0] $end
    $var wire 32 9' io_instruction_address [31:0] $end
    $var wire 16 1' io_instruction_hi [15:0] $end
    $var wire 16 )' io_instruction_lo [15:0] $end
    $var wire 13 1# mem_0_MPORT_addr [12:0] $end
    $var wire  8 )# mem_0_MPORT_data [7:0] $end
    $var wire  1 3 mem_0_MPORT_en $end
    $var wire  1 u! mem_0_MPORT_mask $end
    $var wire 13 S$ mem_0_io_bundle_read_data_MPORT_addr [12:0] $end
    $var wire 13 S$ mem_0_io_bundle_read_data_MPORT_addr_pipe_0 [12:0] $end
    $var wire  8 [$ mem_0_io_bundle_read_data_MPORT_data [7:0] $end
    $var wire  1 K$ mem_0_io_bundle_read_data_MPORT_en $end
    $var wire  1 K$ mem_0_io_bundle_read_data_MPORT_en_pipe_0 $end
    $var wire 13 k$ mem_0_io_debug_read_data_MPORT_addr [12:0] $end
    $var wire 13 k$ mem_0_io_debug_read_data_MPORT_addr_pipe_0 [12:0] $end
    $var wire  8 s$ mem_0_io_debug_read_data_MPORT_data [7:0] $end
    $var wire  1 c$ mem_0_io_debug_read_data_MPORT_en $end
    $var wire  1 c$ mem_0_io_debug_read_data_MPORT_en_pipe_0 $end
    $var wire 13 %% mem_0_io_instruction_MPORT_addr [12:0] $end
    $var wire 13 %% mem_0_io_instruction_MPORT_addr_pipe_0 [12:0] $end
    $var wire  8 -% mem_0_io_instruction_MPORT_data [7:0] $end
    $var wire  1 {$ mem_0_io_instruction_MPORT_en $end
    $var wire  1 {$ mem_0_io_instruction_MPORT_en_pipe_0 $end
    $var wire 13 1# mem_1_MPORT_addr [12:0] $end
    $var wire  8 9# mem_1_MPORT_data [7:0] $end
    $var wire  1 3 mem_1_MPORT_en $end
    $var wire  1 }! mem_1_MPORT_mask $end
    $var wire 13 S$ mem_1_io_bundle_read_data_MPORT_addr [12:0] $end
    $var wire 13 S$ mem_1_io_bundle_read_data_MPORT_addr_pipe_0 [12:0] $end
    $var wire  8 =% mem_1_io_bundle_read_data_MPORT_data [7:0] $end
    $var wire  1 5% mem_1_io_bundle_read_data_MPORT_en $end
    $var wire  1 5% mem_1_io_bundle_read_data_MPORT_en_pipe_0 $end
    $var wire 13 k$ mem_1_io_debug_read_data_MPORT_addr [12:0] $end
    $var wire 13 k$ mem_1_io_debug_read_data_MPORT_addr_pipe_0 [12:0] $end
    $var wire  8 M% mem_1_io_debug_read_data_MPORT_data [7:0] $end
    $var wire  1 E% mem_1_io_debug_read_data_MPORT_en $end
    $var wire  1 E% mem_1_io_debug_read_data_MPORT_en_pipe_0 $end
    $var wire 13 %% mem_1_io_instruction_MPORT_addr [12:0] $end
    $var wire 13 %% mem_1_io_instruction_MPORT_addr_pipe_0 [12:0] $end
    $var wire  8 ]% mem_1_io_instruction_MPORT_data [7:0] $end
    $var wire  1 U% mem_1_io_instruction_MPORT_en $end
    $var wire  1 U% mem_1_io_instruction_MPORT_en_pipe_0 $end
    $var wire 13 1# mem_2_MPORT_addr [12:0] $end
    $var wire  8 A# mem_2_MPORT_data [7:0] $end
    $var wire  1 3 mem_2_MPORT_en $end
    $var wire  1 '" mem_2_MPORT_mask $end
    $var wire 13 S$ mem_2_io_bundle_read_data_MPORT_addr [12:0] $end
    $var wire 13 S$ mem_2_io_bundle_read_data_MPORT_addr_pipe_0 [12:0] $end
    $var wire  8 m% mem_2_io_bundle_read_data_MPORT_data [7:0] $end
    $var wire  1 e% mem_2_io_bundle_read_data_MPORT_en $end
    $var wire  1 e% mem_2_io_bundle_read_data_MPORT_en_pipe_0 $end
    $var wire 13 k$ mem_2_io_debug_read_data_MPORT_addr [12:0] $end
    $var wire 13 k$ mem_2_io_debug_read_data_MPORT_addr_pipe_0 [12:0] $end
    $var wire  8 }% mem_2_io_debug_read_data_MPORT_data [7:0] $end
    $var wire  1 u% mem_2_io_debug_read_data_MPORT_en $end
    $var wire  1 u% mem_2_io_debug_read_data_MPORT_en_pipe_0 $end
    $var wire 13 %% mem_2_io_instruction_MPORT_addr [12:0] $end
    $var wire 13 %% mem_2_io_instruction_MPORT_addr_pipe_0 [12:0] $end
    $var wire  8 /& mem_2_io_instruction_MPORT_data [7:0] $end
    $var wire  1 '& mem_2_io_instruction_MPORT_en $end
    $var wire  1 '& mem_2_io_instruction_MPORT_en_pipe_0 $end
    $var wire 13 1# mem_3_MPORT_addr [12:0] $end
    $var wire  8 I# mem_3_MPORT_data [7:0] $end
    $var wire  1 3 mem_3_MPORT_en $end
    $var wire  1 /" mem_3_MPORT_mask $end
    $var wire 13 S$ mem_3_io_bundle_read_data_MPORT_addr [12:0] $end
    $var wire 13 S$ mem_3_io_bundle_read_data_MPORT_addr_pipe_0 [12:0] $end
    $var wire  8 ?& mem_3_io_bundle_read_data_MPORT_data [7:0] $end
    $var wire  1 7& mem_3_io_bundle_read_data_MPORT_en $end
    $var wire  1 7& mem_3_io_bundle_read_data_MPORT_en_pipe_0 $end
    $var wire 13 k$ mem_3_io_debug_read_data_MPORT_addr [12:0] $end
    $var wire 13 k$ mem_3_io_debug_read_data_MPORT_addr_pipe_0 [12:0] $end
    $var wire  8 O& mem_3_io_debug_read_data_MPORT_data [7:0] $end
    $var wire  1 G& mem_3_io_debug_read_data_MPORT_en $end
    $var wire  1 G& mem_3_io_debug_read_data_MPORT_en_pipe_0 $end
    $var wire 13 %% mem_3_io_instruction_MPORT_addr [12:0] $end
    $var wire 13 %% mem_3_io_instruction_MPORT_addr_pipe_0 [12:0] $end
    $var wire  8 _& mem_3_io_instruction_MPORT_data [7:0] $end
    $var wire  1 W& mem_3_io_instruction_MPORT_en $end
    $var wire  1 W& mem_3_io_instruction_MPORT_en_pipe_0 $end
   $upscope $end
   $scope module rom_loader $end
    $var wire 32 '* address [31:0] $end
    $var wire  1 O* clock $end
    $var wire 32 /* io_bundle_address [31:0] $end
    $var wire 32 C io_bundle_write_data [31:0] $end
    $var wire  1 7* io_bundle_write_enable $end
    $var wire  1 7* io_bundle_write_strobe_0 $end
    $var wire  1 7* io_bundle_write_strobe_1 $end
    $var wire  1 7* io_bundle_write_strobe_2 $end
    $var wire  1 7* io_bundle_write_strobe_3 $end
    $var wire  1 ?* io_load_finished $end
    $var wire 32 '* io_rom_address [31:0] $end
    $var wire 32 ; io_rom_data [31:0] $end
    $var wire  1 W* reset $end
    $var wire  1 ?* valid $end
   $upscope $end
  $upscope $end
 $upscope $end
$enddefinitions $end


#0
1#
b00000000000000000001000000000000 +
13
b00000000000000000001000100110111 ;
b00000000000000000001000100110111 C
0K
b00000000000000000000000000000000 S
1[
b00000 c
b00000 k
b00000 s
b00000000000000000000000000010011 {
b00000000000000000000000000000000 %!
1-!
05!
0=!
b00 E!
b000 M!
b0010011 U!
b00000 ]!
b0001 e!
b0000000 m!
1u!
1}!
1'"
1/"
b00000000000000000000000000000000 7"
0?"
0G"
0O"
0W"
0_"
b00000000000000000000000000000000 g"
b00000000000000000001000000000000 o"
b00000000000000000001000100110111 w"
b00000000000000000000000000000000 !#
b00110111 )#
b0010000000000 1#
b00010001 9#
b00000000 A#
b00000000 I#
b00000000000000000000000000000000 Q#
b00000000000000000000000000000000 Y#
b00000000000000000000000000000000 a#
b00000000000000000000000000000000 i#
b00000000000000000000000000000000 q#
b00 y#
b00000000000000000000000000000000 #$
b00000000000000000000000000000000 +$
b00000000000000000000000000000000 3$
1;$
b00 C$
0K$
b0000000000000 S$
b00000000 [$
0c$
b0000000000000 k$
b00000000 s$
0{$
b0000000000000 %%
b00000000 -%
05%
b00000000 =%
0E%
b00000000 M%
0U%
b00000000 ]%
0e%
b00000000 m%
0u%
b00000000 }%
0'&
b00000000 /&
07&
b00000000 ?&
0G&
b00000000 O&
0W&
b00000000 _&
b0000000000000000 g&
b0000000000000000 o&
b0000000000000000 w&
b0000000000000000 !'
b0000000000000000 )'
b0000000000000000 1'
b00000000000000000001000000000000 9'
b00000000000000000000000000000000 A'
b00000000000000000000000000000000 I'
b00000000000000000000000000000000 Q'
b00000000000000000000000000000000 Y'
b00000000000000000000000000000000 a'
b00000000000000000000000000000000 i'
b00000000000000000000000000000000 q'
b00000000000000000000000000000000 y'
b00000000000000000000000000000000 #(
b00000000000000000000000000000000 +(
b00000000000000000000000000000000 3(
b00000000000000000000000000000000 ;(
b00000000000000000000000000000000 C(
b00000000000000000000000000000000 K(
b00000000000000000000000000000000 S(
b00000000000000000000000000000000 [(
b00000000000000000000000000000000 c(
b00000000000000000000000000000000 k(
b00000000000000000000000000000000 s(
b00000000000000000000000000000000 {(
b00000000000000000000000000000000 %)
b00000000000000000000000000000000 -)
b00000000000000000000000000000000 5)
b00000000000000000000000000000000 =)
b00000000000000000000000000000000 E)
b00000000000000000000000000000000 M)
b00000000000000000000000000000000 U)
b00000000000000000000000000000000 ])
b00000000000000000000000000000000 e)
b00000000000000000000000000000000 m)
b00000000000000000000000000000000 u)
b00000000000000000000000000000000 })
b00000000000000000000000000000000 '*
b00000000000000000001000000000000 /*
17*
0?*
b00000000 G*
0O*
1W*
b00000000000000000000000000000000 _*
b00000 g*
b00000000000000000000000000000000 o*
b00000000000000000000000000000000 w*
b00000000000000000000000000000000 !+
1)+
b00000000000000000000000000000000 1+
#1
b00000000000000000001000100110111 #$
b00000000000000000001000100110111 +$
1K$
b0010000000000 S$
b00110111 [$
1c$
1{$
b0010000000000 %%
b00110111 -%
15%
b00010001 =%
1E%
1U%
b00010001 ]%
1e%
1u%
1'&
17&
1G&
1W&
b0001000100110111 g&
b0001000100110111 )'
1O*
#2
0O*
0W*
#3
0#
b00011011110000000000000011101111 ;
b00011011110000000000000011101111 C
b00000000000000000001000000000100 o"
b00011011110000000000000011101111 w"
b11101111 )#
b0010000000001 1#
b00000000 9#
b11000000 A#
b00011011 I#
0;$
b01 C$
b00000000000000000000000000000001 '*
b00000000000000000001000000000100 /*
b00000001 G*
1O*
#4
0O*
#5
b00000000000000000000000001101111 ;
b00000000000000000000000001101111 C
b00000000000000000001000000001000 o"
b00000000000000000000000001101111 w"
b01101111 )#
b0010000000010 1#
b00000000 A#
b00000000 I#
b00011011110000000000000011101111 #$
b10 C$
b0010000000001 S$
b11101111 [$
b00000000 =%
b11000000 m%
b00011011 ?&
b0000000011101111 g&
b0001101111000000 o&
b00000000000000000000000000000010 '*
b00000000000000000001000000001000 /*
b00000010 G*
1O*
#6
0O*
#7
b00000000000000000000001010010111 ;
b00000000000000000000001010010111 C
b00000000000000000001000000001100 o"
b00000000000000000000001010010111 w"
b10010111 )#
b0010000000011 1#
b00000010 9#
b00000000000000000000000001101111 #$
b11 C$
b0010000000010 S$
b01101111 [$
b00000000 m%
b00000000 ?&
b0000000001101111 g&
b0000000000000000 o&
b00000000000000000000000000000011 '*
b00000000000000000001000000001100 /*
b00000011 G*
1O*
#8
0O*
#9
1#
b00000010100000101000001010010011 ;
b00000010100000101000001010010011 C
b00000000000000000001000000010000 o"
b00000010100000101000001010010011 w"
b10010011 )#
b0010000000100 1#
b10000010 9#
b10000010 A#
b00000010 I#
b00000000000000000000001010010111 #$
1;$
b00 C$
b0010000000011 S$
b10010111 [$
b00000010 =%
b0000001010010111 g&
b00000000000000000000000000000100 '*
b00000000000000000001000000010000 /*
b00000100 G*
1O*
#10
0O*
#11
0#
b00110000010100101001001101110011 ;
b00110000010100101001001101110011 C
b00000000000000000001000000010100 o"
b00110000010100101001001101110011 w"
b01110011 )#
b0010000000101 1#
b10010011 9#
b01010010 A#
b00110000 I#
b00000010100000101000001010010011 #$
0;$
b01 C$
b0010000000100 S$
b10010011 [$
b10000010 =%
b10000010 m%
b00000010 ?&
b1000001010010011 g&
b0000001010000010 o&
b00000000000000000000000000000101 '*
b00000000000000000001000000010100 /*
b00000101 G*
1O*
#12
0O*
#13
b00000000000000000010001010110111 ;
b00000000000000000010001010110111 C
b00000000000000000001000000011000 o"
b00000000000000000010001010110111 w"
b10110111 )#
b0010000000110 1#
b00100010 9#
b00000000 A#
b00000000 I#
b00110000010100101001001101110011 #$
b10 C$
b0010000000101 S$
b01110011 [$
b10010011 =%
b01010010 m%
b00110000 ?&
b1001001101110011 g&
b0011000001010010 o&
b00000000000000000000000000000110 '*
b00000000000000000001000000011000 /*
b00000110 G*
1O*
#14
0O*
#15
b10001000100000101000001010010011 ;
b10001000100000101000001010010011 C
b00000000000000000001000000011100 o"
b10001000100000101000001010010011 w"
b10010011 )#
b0010000000111 1#
b10000010 9#
b10000010 A#
b10001000 I#
b00000000000000000010001010110111 #$
b11 C$
b0010000000110 S$
b10110111 [$
b00100010 =%
b00000000 m%
b00000000 ?&
b0010001010110111 g&
b0000000000000000 o&
b00000000000000000000000000000111 '*
b00000000000000000001000000011100 /*
b00000111 G*
1O*
#16
0O*
#17
1#
b00110000000000101001001101110011 ;
b00110000000000101001001101110011 C
b00000000000000000001000000100000 o"
b00110000000000101001001101110011 w"
b01110011 )#
b0010000001000 1#
b10010011 9#
b00000010 A#
b00110000 I#
b10001000100000101000001010010011 #$
1;$
b00 C$
b0010000000111 S$
b10010011 [$
b10000010 =%
b10000010 m%
b10001000 ?&
b1000001010010011 g&
b1000100010000010 o&
b00000000000000000000000000001000 '*
b00000000000000000001000000100000 /*
b00001000 G*
1O*
#18
0O*
#19
0#
b00000000000000001000000001100111 ;
b00000000000000001000000001100111 C
b00000000000000000001000000100100 o"
b00000000000000001000000001100111 w"
b01100111 )#
b0010000001001 1#
b10000000 9#
b00000000 A#
b00000000 I#
b00110000000000101001001101110011 #$
0;$
b01 C$
b0010000001000 S$
b01110011 [$
b10010011 =%
b00000010 m%
b00110000 ?&
b1001001101110011 g&
b0011000000000010 o&
b00000000000000000000000000001001 '*
b00000000000000000001000000100100 /*
b00001001 G*
1O*
#20
0O*
#21
b00110100000100000010010101110011 ;
b00110100000100000010010101110011 C
b00000000000000000001000000101000 o"
b00110100000100000010010101110011 w"
b01110011 )#
b0010000001010 1#
b00100101 9#
b00010000 A#
b00110100 I#
b00000000000000001000000001100111 #$
b10 C$
b0010000001001 S$
b01100111 [$
b10000000 =%
b00000000 m%
b00000000 ?&
b1000000001100111 g&
b0000000000000000 o&
b00000000000000000000000000001010 '*
b00000000000000000001000000101000 /*
b00001010 G*
1O*
#22
0O*
#23
b00000000000000001000000001100111 ;
b00000000000000001000000001100111 C
b00000000000000000001000000101100 o"
b00000000000000001000000001100111 w"
b01100111 )#
b0010000001011 1#
b10000000 9#
b00000000 A#
b00000000 I#
b00110100000100000010010101110011 #$
b11 C$
b0010000001010 S$
b01110011 [$
b00100101 =%
b00010000 m%
b00110100 ?&
b0010010101110011 g&
b0011010000010000 o&
b00000000000000000000000000001011 '*
b00000000000000000001000000101100 /*
b00001011 G*
1O*
#24
0O*
#25
1#
b00000000000000000001000000110000 o"
b0010000001100 1#
b00000000000000001000000001100111 #$
1;$
b00 C$
b0010000001011 S$
b01100111 [$
b10000000 =%
b00000000 m%
b00000000 ?&
b1000000001100111 g&
b0000000000000000 o&
b00000000000000000000000000001100 '*
b00000000000000000001000000110000 /*
b00001100 G*
1O*
#26
0O*
#27
0#
b00110100000000010001000001110011 ;
b00110100000000010001000001110011 C
b00000000000000000001000000110100 o"
b00110100000000010001000001110011 w"
b01110011 )#
b0010000001101 1#
b00010000 9#
b00000001 A#
b00110100 I#
0;$
b01 C$
b0010000001100 S$
b00000000000000000000000000001101 '*
b00000000000000000001000000110100 /*
b00001101 G*
1O*
#28
0O*
