dump/dump_main.vcd
$version Generated by VerilatedVcd $end
$date Wed Nov 22 16:28:03 2023
 $end
$timescale   1ns $end

 $scope module TOP $end
  $var wire  1 E% clock $end
  $var wire  5 W& io_debug_read_address [4:0] $end
  $var wire 32 _& io_debug_read_data [31:0] $end
  $var wire  3 O& io_deviceSelect [2:0] $end
  $var wire 32 ]% io_instruction [31:0] $end
  $var wire 32 U% io_instruction_address [31:0] $end
  $var wire  1 G& io_instruction_valid $end
  $var wire 32 e% io_memory_bundle_address [31:0] $end
  $var wire 32 ?& io_memory_bundle_read_data [31:0] $end
  $var wire 32 m% io_memory_bundle_write_data [31:0] $end
  $var wire  1 u% io_memory_bundle_write_enable $end
  $var wire  1 }% io_memory_bundle_write_strobe_0 $end
  $var wire  1 '& io_memory_bundle_write_strobe_1 $end
  $var wire  1 /& io_memory_bundle_write_strobe_2 $end
  $var wire  1 7& io_memory_bundle_write_strobe_3 $end
  $var wire  1 M% reset $end
  $scope module Top $end
   $var wire  1 E% clock $end
   $var wire  1 E% cpu_clock $end
   $var wire  5 W& cpu_io_debug_read_address [4:0] $end
   $var wire 32 g& cpu_io_debug_read_data [31:0] $end
   $var wire 32 ]% cpu_io_instruction [31:0] $end
   $var wire 32 W" cpu_io_instruction_address [31:0] $end
   $var wire  1 G& cpu_io_instruction_valid $end
   $var wire 32 + cpu_io_memory_bundle_address [31:0] $end
   $var wire 32 ?& cpu_io_memory_bundle_read_data [31:0] $end
   $var wire 32 3 cpu_io_memory_bundle_write_data [31:0] $end
   $var wire  1 ; cpu_io_memory_bundle_write_enable $end
   $var wire  1 C cpu_io_memory_bundle_write_strobe_0 $end
   $var wire  1 K cpu_io_memory_bundle_write_strobe_1 $end
   $var wire  1 S cpu_io_memory_bundle_write_strobe_2 $end
   $var wire  1 [ cpu_io_memory_bundle_write_strobe_3 $end
   $var wire  1 M% cpu_reset $end
   $var wire  5 W& io_debug_read_address [4:0] $end
   $var wire 32 _& io_debug_read_data [31:0] $end
   $var wire  3 O& io_deviceSelect [2:0] $end
   $var wire 32 ]% io_instruction [31:0] $end
   $var wire 32 U% io_instruction_address [31:0] $end
   $var wire  1 G& io_instruction_valid $end
   $var wire 32 e% io_memory_bundle_address [31:0] $end
   $var wire 32 ?& io_memory_bundle_read_data [31:0] $end
   $var wire 32 m% io_memory_bundle_write_data [31:0] $end
   $var wire  1 u% io_memory_bundle_write_enable $end
   $var wire  1 }% io_memory_bundle_write_strobe_0 $end
   $var wire  1 '& io_memory_bundle_write_strobe_1 $end
   $var wire  1 /& io_memory_bundle_write_strobe_2 $end
   $var wire  1 7& io_memory_bundle_write_strobe_3 $end
   $var wire  1 M% reset $end
   $scope module cpu $end
    $var wire  1 E% clock $end
    $var wire  1 U! ex_io_aluop2_source $end
    $var wire 32 # ex_io_if_jump_address [31:0] $end
    $var wire  1 =! ex_io_if_jump_flag $end
    $var wire 32 M! ex_io_immediate [31:0] $end
    $var wire 32 E! ex_io_instruction [31:0] $end
    $var wire 32 W" ex_io_instruction_address [31:0] $end
    $var wire 32 u! ex_io_mem_alu_result [31:0] $end
    $var wire 32 -! ex_io_reg1_data [31:0] $end
    $var wire 32 5! ex_io_reg2_data [31:0] $end
    $var wire  1 U! id_io_ex_aluop2_source $end
    $var wire 32 M! id_io_ex_immediate [31:0] $end
    $var wire 32 E! id_io_instruction [31:0] $end
    $var wire  1 ]! id_io_memory_read_enable $end
    $var wire  1 e! id_io_memory_write_enable $end
    $var wire  5 k id_io_reg_write_address [4:0] $end
    $var wire  1 c id_io_reg_write_enable $end
    $var wire  5 { id_io_regs_reg1_read_address [4:0] $end
    $var wire  5 %! id_io_regs_reg2_read_address [4:0] $end
    $var wire  2 m! id_io_wb_reg_write_source [1:0] $end
    $var wire  1 E% inst_fetch_clock $end
    $var wire 32 E! inst_fetch_io_instruction [31:0] $end
    $var wire 32 W" inst_fetch_io_instruction_address [31:0] $end
    $var wire 32 ]% inst_fetch_io_instruction_read_data [31:0] $end
    $var wire  1 G& inst_fetch_io_instruction_valid $end
    $var wire 32 # inst_fetch_io_jump_address_id [31:0] $end
    $var wire  1 =! inst_fetch_io_jump_flag_id $end
    $var wire  1 M% inst_fetch_reset $end
    $var wire  5 W& io_debug_read_address [4:0] $end
    $var wire 32 g& io_debug_read_data [31:0] $end
    $var wire 32 ]% io_instruction [31:0] $end
    $var wire 32 W" io_instruction_address [31:0] $end
    $var wire  1 G& io_instruction_valid $end
    $var wire 32 + io_memory_bundle_address [31:0] $end
    $var wire 32 ?& io_memory_bundle_read_data [31:0] $end
    $var wire 32 3 io_memory_bundle_write_data [31:0] $end
    $var wire  1 ; io_memory_bundle_write_enable $end
    $var wire  1 C io_memory_bundle_write_strobe_0 $end
    $var wire  1 K io_memory_bundle_write_strobe_1 $end
    $var wire  1 S io_memory_bundle_write_strobe_2 $end
    $var wire  1 [ io_memory_bundle_write_strobe_3 $end
    $var wire 32 u! mem_io_alu_result [31:0] $end
    $var wire  3 }! mem_io_funct3 [2:0] $end
    $var wire 32 u! mem_io_memory_bundle_address [31:0] $end
    $var wire 32 ?& mem_io_memory_bundle_read_data [31:0] $end
    $var wire 32 3 mem_io_memory_bundle_write_data [31:0] $end
    $var wire  1 ; mem_io_memory_bundle_write_enable $end
    $var wire  1 C mem_io_memory_bundle_write_strobe_0 $end
    $var wire  1 K mem_io_memory_bundle_write_strobe_1 $end
    $var wire  1 S mem_io_memory_bundle_write_strobe_2 $end
    $var wire  1 [ mem_io_memory_bundle_write_strobe_3 $end
    $var wire  1 ]! mem_io_memory_read_enable $end
    $var wire  1 e! mem_io_memory_write_enable $end
    $var wire 32 5! mem_io_reg2_data [31:0] $end
    $var wire 32 o& mem_io_wb_memory_read_data [31:0] $end
    $var wire  1 E% regs_clock $end
    $var wire  5 W& regs_io_debug_read_address [4:0] $end
    $var wire 32 g& regs_io_debug_read_data [31:0] $end
    $var wire  5 { regs_io_read_address1 [4:0] $end
    $var wire  5 %! regs_io_read_address2 [4:0] $end
    $var wire 32 -! regs_io_read_data1 [31:0] $end
    $var wire 32 5! regs_io_read_data2 [31:0] $end
    $var wire  5 k regs_io_write_address [4:0] $end
    $var wire 32 s regs_io_write_data [31:0] $end
    $var wire  1 c regs_io_write_enable $end
    $var wire  1 M% regs_reset $end
    $var wire  1 M% reset $end
    $var wire 32 u! wb_io_alu_result [31:0] $end
    $var wire 32 W" wb_io_instruction_address [31:0] $end
    $var wire 32 o& wb_io_memory_read_data [31:0] $end
    $var wire 32 s wb_io_regs_write_data [31:0] $end
    $var wire  2 m! wb_io_regs_write_source [1:0] $end
    $scope module ex $end
     $var wire  4 7" alu_ctrl_io_alu_funct [3:0] $end
     $var wire  3 }! alu_ctrl_io_funct3 [2:0] $end
     $var wire  7 G" alu_ctrl_io_funct7 [6:0] $end
     $var wire  7 '" alu_ctrl_io_opcode [6:0] $end
     $var wire  4 7" alu_io_func [3:0] $end
     $var wire 32 -! alu_io_op1 [31:0] $end
     $var wire 32 ?" alu_io_op2 [31:0] $end
     $var wire 32 u! alu_io_result [31:0] $end
     $var wire  3 }! funct3 [2:0] $end
     $var wire  1 U! io_aluop2_source $end
     $var wire 32 # io_if_jump_address [31:0] $end
     $var wire  1 =! io_if_jump_flag $end
     $var wire 32 M! io_immediate [31:0] $end
     $var wire 32 E! io_instruction [31:0] $end
     $var wire 32 W" io_instruction_address [31:0] $end
     $var wire 32 u! io_mem_alu_result [31:0] $end
     $var wire 32 -! io_reg1_data [31:0] $end
     $var wire 32 5! io_reg2_data [31:0] $end
     $var wire  7 '" opcode [6:0] $end
     $scope module alu $end
      $var wire  4 7" io_func [3:0] $end
      $var wire 32 -! io_op1 [31:0] $end
      $var wire 32 ?" io_op2 [31:0] $end
      $var wire 32 u! io_result [31:0] $end
     $upscope $end
     $scope module alu_ctrl $end
      $var wire  4 7" io_alu_funct [3:0] $end
      $var wire  3 }! io_funct3 [2:0] $end
      $var wire  7 G" io_funct7 [6:0] $end
      $var wire  7 '" io_opcode [6:0] $end
     $upscope $end
    $upscope $end
    $scope module id $end
     $var wire  1 U! io_ex_aluop2_source $end
     $var wire 32 M! io_ex_immediate [31:0] $end
     $var wire 32 E! io_instruction [31:0] $end
     $var wire  1 ]! io_memory_read_enable $end
     $var wire  1 e! io_memory_write_enable $end
     $var wire  5 k io_reg_write_address [4:0] $end
     $var wire  1 c io_reg_write_enable $end
     $var wire  5 { io_regs_reg1_read_address [4:0] $end
     $var wire  5 %! io_regs_reg2_read_address [4:0] $end
     $var wire  2 m! io_wb_reg_write_source [1:0] $end
     $var wire  7 '" opcode [6:0] $end
     $var wire  5 k rd [4:0] $end
     $var wire  5 /" rs1 [4:0] $end
    $upscope $end
    $scope module inst_fetch $end
     $var wire  1 E% clock $end
     $var wire 32 E! io_instruction [31:0] $end
     $var wire 32 W" io_instruction_address [31:0] $end
     $var wire 32 ]% io_instruction_read_data [31:0] $end
     $var wire  1 G& io_instruction_valid $end
     $var wire 32 # io_jump_address_id [31:0] $end
     $var wire  1 =! io_jump_flag_id $end
     $var wire 32 W" pc [31:0] $end
     $var wire  1 M% reset $end
    $upscope $end
    $scope module mem $end
     $var wire 32 u! io_alu_result [31:0] $end
     $var wire  3 }! io_funct3 [2:0] $end
     $var wire 32 u! io_memory_bundle_address [31:0] $end
     $var wire 32 ?& io_memory_bundle_read_data [31:0] $end
     $var wire 32 3 io_memory_bundle_write_data [31:0] $end
     $var wire  1 ; io_memory_bundle_write_enable $end
     $var wire  1 C io_memory_bundle_write_strobe_0 $end
     $var wire  1 K io_memory_bundle_write_strobe_1 $end
     $var wire  1 S io_memory_bundle_write_strobe_2 $end
     $var wire  1 [ io_memory_bundle_write_strobe_3 $end
     $var wire  1 ]! io_memory_read_enable $end
     $var wire  1 e! io_memory_write_enable $end
     $var wire 32 5! io_reg2_data [31:0] $end
     $var wire 32 o& io_wb_memory_read_data [31:0] $end
     $var wire  2 O" mem_address_index [1:0] $end
    $upscope $end
    $scope module regs $end
     $var wire  1 E% clock $end
     $var wire  5 W& io_debug_read_address [4:0] $end
     $var wire 32 g& io_debug_read_data [31:0] $end
     $var wire  5 { io_read_address1 [4:0] $end
     $var wire  5 %! io_read_address2 [4:0] $end
     $var wire 32 -! io_read_data1 [31:0] $end
     $var wire 32 5! io_read_data2 [31:0] $end
     $var wire  5 k io_write_address [4:0] $end
     $var wire 32 s io_write_data [31:0] $end
     $var wire  1 c io_write_enable $end
     $var wire 32 _" registers_0 [31:0] $end
     $var wire 32 g" registers_1 [31:0] $end
     $var wire 32 Q# registers_10 [31:0] $end
     $var wire 32 Y# registers_11 [31:0] $end
     $var wire 32 a# registers_12 [31:0] $end
     $var wire 32 i# registers_13 [31:0] $end
     $var wire 32 q# registers_14 [31:0] $end
     $var wire 32 y# registers_15 [31:0] $end
     $var wire 32 #$ registers_16 [31:0] $end
     $var wire 32 +$ registers_17 [31:0] $end
     $var wire 32 3$ registers_18 [31:0] $end
     $var wire 32 ;$ registers_19 [31:0] $end
     $var wire 32 o" registers_2 [31:0] $end
     $var wire 32 C$ registers_20 [31:0] $end
     $var wire 32 K$ registers_21 [31:0] $end
     $var wire 32 S$ registers_22 [31:0] $end
     $var wire 32 [$ registers_23 [31:0] $end
     $var wire 32 c$ registers_24 [31:0] $end
     $var wire 32 k$ registers_25 [31:0] $end
     $var wire 32 s$ registers_26 [31:0] $end
     $var wire 32 {$ registers_27 [31:0] $end
     $var wire 32 %% registers_28 [31:0] $end
     $var wire 32 -% registers_29 [31:0] $end
     $var wire 32 w" registers_3 [31:0] $end
     $var wire 32 5% registers_30 [31:0] $end
     $var wire 32 =% registers_31 [31:0] $end
     $var wire 32 !# registers_4 [31:0] $end
     $var wire 32 )# registers_5 [31:0] $end
     $var wire 32 1# registers_6 [31:0] $end
     $var wire 32 9# registers_7 [31:0] $end
     $var wire 32 A# registers_8 [31:0] $end
     $var wire 32 I# registers_9 [31:0] $end
     $var wire  1 M% reset $end
    $upscope $end
    $scope module wb $end
     $var wire 32 u! io_alu_result [31:0] $end
     $var wire 32 W" io_instruction_address [31:0] $end
     $var wire 32 o& io_memory_read_data [31:0] $end
     $var wire 32 s io_regs_write_data [31:0] $end
     $var wire  2 m! io_regs_write_source [1:0] $end
    $upscope $end
   $upscope $end
  $upscope $end
 $upscope $end
$enddefinitions $end


#0
b00000000000000000000000000000000 #
b00000000000000000000000000000000 +
b00000000000000000000000000000000 3
0;
0C
0K
0S
0[
1c
b00000 k
b00000000000000000000000000000000 s
b00000 {
b00000 %!
b00000000000000000000000000000000 -!
b00000000000000000000000000000000 5!
0=!
b00000000000000000000000000010011 E!
b00000000000000000000000000000000 M!
1U!
0]!
0e!
b00 m!
b00000000000000000000000000000000 u!
b000 }!
b0010011 '"
b00000 /"
b0001 7"
b00000000000000000000000000000000 ?"
b0000000 G"
b00 O"
b00000000000000000000000000000000 W"
b00000000000000000000000000000000 _"
b00000000000000000000000000000000 g"
b00000000000000000000000000000000 o"
b00000000000000000000000000000000 w"
b00000000000000000000000000000000 !#
b00000000000000000000000000000000 )#
b00000000000000000000000000000000 1#
b00000000000000000000000000000000 9#
b00000000000000000000000000000000 A#
b00000000000000000000000000000000 I#
b00000000000000000000000000000000 Q#
b00000000000000000000000000000000 Y#
b00000000000000000000000000000000 a#
b00000000000000000000000000000000 i#
b00000000000000000000000000000000 q#
b00000000000000000000000000000000 y#
b00000000000000000000000000000000 #$
b00000000000000000000000000000000 +$
b00000000000000000000000000000000 3$
b00000000000000000000000000000000 ;$
b00000000000000000000000000000000 C$
b00000000000000000000000000000000 K$
b00000000000000000000000000000000 S$
b00000000000000000000000000000000 [$
b00000000000000000000000000000000 c$
b00000000000000000000000000000000 k$
b00000000000000000000000000000000 s$
b00000000000000000000000000000000 {$
b00000000000000000000000000000000 %%
b00000000000000000000000000000000 -%
b00000000000000000000000000000000 5%
b00000000000000000000000000000000 =%
0E%
1M%
b00000000000000000000000000000000 U%
b00000000000000000000000000000000 ]%
b00000000000000000000000000000000 e%
b00000000000000000000000000000000 m%
0u%
0}%
0'&
0/&
07&
b00000000000000000000000000000000 ?&
0G&
b000 O&
b00000 W&
b00000000000000000000000000000000 _&
b00000000000000000000000000000000 g&
b00000000000000000000000000000000 o&
#1
b00000000000000000001000000000000 #
0c
b00000000000000000000000000000000 E!
b0000000 '"
b0000 7"
b00000000000000000001000000000000 W"
1E%
b00000000000000000001000000000000 U%
1G&
#2
b00000000000000000010000000000000 #
b00000000000000000001000000000000 +
1c
b00010 k
b00000000000000000001000000000000 s
b00000000000000000001000100110111 E!
b00000000000000000001000000000000 M!
b00000000000000000001000000000000 u!
b001 }!
b0110111 '"
b0001 7"
b00000000000000000001000000000000 ?"
b00000000000000000001000100110111 ]%
b00000000000000000001000000000000 e%
#3
0E%
0M%
b00000000000000000001000100110111 ?&
#4
#5
b00000000000000000010000000000100 #
b00000000000000000001000000000100 W"
b00000000000000000001000000000000 o"
1E%
b00000000000000000001000000000100 U%
#6
b00000000000000000001011101100100 #
b00000000000000000000011101100000 +
b00001 k
b00000000000000000001000000001000 s
1=!
b01110110000000000000000011101111 E!
b00000000000000000000011101100000 M!
b11 m!
b00000000000000000000011101100000 u!
b000 }!
b1101111 '"
b00000000000000000000011101100000 ?"
b0111011 G"
b01110110000000000000000011101111 ]%
b00000000000000000000011101100000 e%
#7
0E%
b00000000000000000000000000000000 ?&
#8
#9
b00000000000000000001111011000100 #
b00000000000000000001011101101000 s
b00000000000000000001011101100100 W"
b00000000000000000001000000001000 g"
1E%
b00000000000000000001011101100100 U%
#10
b00000000000000000001011100110100 #
b00000000000000000000111111010000 +
b00010 k
b00000000000000000000111111010000 s
b00010 {
b10000 %!
b00000000000000000001000000000000 -!
0=!
b11111101000000010000000100010011 E!
b11111111111111111111111111010000 M!
b00 m!
b00000000000000000000111111010000 u!
b0010011 '"
b00010 /"
b11111111111111111111111111010000 ?"
b1111110 G"
b11111101000000010000000100010011 ]%
b00000000000000000000111111010000 e%
#11
0E%
#12
#13
b00000000000000000001011100111000 #
b00000000000000000000111110100000 +
b00000000000000000000111110100000 s
b00000000000000000000111111010000 -!
b00000000000000000000111110100000 u!
b00000000000000000001011101101000 W"
b00000000000000000000111111010000 o"
1E%
b00000000000000000001011101101000 U%
b00000000000000000000111110100000 e%
#14
b00000000000000000001011110010100 #
b00000000000000000000111111111100 +
b00000000000000000001000000001000 3
1;
1C
1K
1S
1[
0c
b01100 k
b00000000000000000000111111111100 s
b00001 %!
b00000000000000000001000000001000 5!
b00000010000100010010011000100011 E!
b00000000000000000000000000101100 M!
1e!
b00000000000000000000111111111100 u!
b010 }!
b0100011 '"
b00000000000000000000000000101100 ?"
b0000001 G"
b00000010000100010010011000100011 ]%
b00000000000000000000111111111100 e%
b00000000000000000001000000001000 m%
1u%
1}%
1'&
1/&
17&
#15
0E%
#16
b00000000000000000001000000001000 ?&
#17
b00000000000000000001011110011000 #
b00000000000000000001011101101100 W"
1E%
b00000000000000000001011101101100 U%
#18
b00000000000000000001011110010100 #
b00000000000000000000111111111000 +
b00000000000000000000000000000000 3
b01000 k
b00000000000000000000111111111000 s
b01000 %!
b00000000000000000000000000000000 5!
b00000010100000010010010000100011 E!
b00000000000000000000000000101000 M!
b00000000000000000000111111111000 u!
b00000000000000000000000000101000 ?"
b00000010100000010010010000100011 ]%
b00000000000000000000111111111000 e%
b00000000000000000000000000000000 m%
#19
0E%
b00000000000000000000000000000000 ?&
#20
#21
b00000000000000000001011110011000 #
b00000000000000000001011101110000 W"
1E%
b00000000000000000001011101110000 U%
#22
b00000000000000000001011110010100 #
b00000000000000000000111111110100 +
b00100 k
b00000000000000000000111111110100 s
b01001 %!
b00000010100100010010001000100011 E!
b00000000000000000000000000100100 M!
b00000000000000000000111111110100 u!
b00000000000000000000000000100100 ?"
b00000010100100010010001000100011 ]%
b00000000000000000000111111110100 e%
#23
0E%
#24
#25
b00000000000000000001011110011000 #
b00000000000000000001011101110100 W"
1E%
b00000000000000000001011101110100 U%
#26
b00000000000000000001011110100100 #
b00000000000000000001000000000000 +
0;
0C
0K
0S
0[
1c
b01000 k
b00000000000000000001000000000000 s
b10000 %!
b00000011000000010000010000010011 E!
b00000000000000000000000000110000 M!
0e!
b00000000000000000001000000000000 u!
b000 }!
b0010011 '"
b00000000000000000000000000110000 ?"
b00000011000000010000010000010011 ]%
b00000000000000000001000000000000 e%
0u%
0}%
0'&
0/&
07&
#27
0E%
b00000000000000000001000100110111 ?&
#28
#29
b00000000000000000001011110101000 #
b00000000000000000001011101111000 W"
b00000000000000000001000000000000 A#
1E%
b00000000000000000001011101111000 U%
#30
b00000000000000000011011101111000 #
b00000000000000000010000000000000 +
b01111 k
b00000000000000000010000000000000 s
b00000 {
b00000 %!
b00000000000000000000000000000000 -!
b00000000000000000010011110110111 E!
b00000000000000000010000000000000 M!
b00000000000000000010000000000000 u!
b010 }!
b0110111 '"
b00000 /"
b00000000000000000010000000000000 ?"
b0000000 G"
b00000000000000000010011110110111 ]%
b00000000000000000010000000000000 e%
#31
0E%
b00000000000000000000000000000000 ?&
#32
#33
b00000000000000000011011101111100 #
b00000000000000000001011101111100 W"
b00000000000000000010000000000000 y#
1E%
b00000000000000000001011101111100 U%
#34
b00000000000000000001011101111100 #
b01111 {
b00000000000000000010000000000000 -!
b00000000000001111000011110010011 E!
b00000000000000000000000000000000 M!
b000 }!
b0010011 '"
b01111 /"
b00000000000000000000000000000000 ?"
b00000000000001111000011110010011 ]%
#35
0E%
#36
#37
b00000000000000000001011110000000 #
b00000000000000000001011110000000 W"
1E%
b00000000000000000001011110000000 U%
#38
b01010 k
b00000000000000000000000000000000 s
b00000000000001111010010100000011 E!
1]!
b01 m!
b010 }!
b0000011 '"
b00000000000001111010010100000011 ]%
#39
0E%
#40
#41
b00000000000000000001011110000100 #
b00000000000000000001011110000100 W"
1E%
b00000000000000000001011110000100 U%
#42
b00000000000000000001011110001000 #
b00000000000000000010000000000100 +
b01011 k
b00100 %!
b00000000010001111010010110000011 E!
b00000000000000000000000000000100 M!
b00000000000000000010000000000100 u!
b00000000000000000000000000000100 ?"
b00000000010001111010010110000011 ]%
b00000000000000000010000000000100 e%
#43
b00001111000000000000000000000000 s
0E%
b00001111000000000000000000000000 ?&
b00001111000000000000000000000000 o&
#44
#45
b00000000000000000001011110001100 #
b00000000000000000001011110001000 W"
b00001111000000000000000000000000 Y#
1E%
b00000000000000000001011110001000 U%
#46
b00000000000000000001011110010000 #
b00000000000000000010000000001000 +
b01100 k
b01000 %!
b00000000000000000001000000000000 5!
b00000000100001111010011000000011 E!
b00000000000000000000000000001000 M!
b00000000000000000010000000001000 u!
b00000000000000000000000000001000 ?"
b00000000100001111010011000000011 ]%
b00000000000000000010000000001000 e%
#47
b00000000000000000000000000000000 s
0E%
b00000000000000000000000000000000 ?&
b00000000000000000000000000000000 o&
#48
#49
b00000000000000000001011110010100 #
b00000000000000000001011110001100 W"
1E%
b00000000000000000001011110001100 U%
#50
b00000000000000000001011110011000 #
b00000000000000000010000000001100 +
b01101 k
b01100 %!
b00000000000000000000000000000000 5!
b00000000110001111010011010000011 E!
b00000000000000000000000000001100 M!
b00000000000000000010000000001100 u!
b00000000000000000000000000001100 ?"
b00000000110001111010011010000011 ]%
b00000000000000000010000000001100 e%
#51
0E%
#52
#53
b00000000000000000001011110011100 #
b00000000000000000001011110010000 W"
1E%
b00000000000000000001011110010000 U%
#54
b00000000000000000001011110100000 #
b00000000000000000010000000010000 +
b01110 k
b10000 %!
b00000001000001111010011100000011 E!
b00000000000000000000000000010000 M!
b00000000000000000010000000010000 u!
b00000000000000000000000000010000 ?"
b00000001000001111010011100000011 ]%
b00000000000000000010000000010000 e%
#55
b10001001101010111100110111101111 s
0E%
b10001001101010111100110111101111 ?&
b10001001101010111100110111101111 o&
#56
#57
b00000000000000000001011110100100 #
b00000000000000000001011110010100 W"
b10001001101010111100110111101111 q#
1E%
b00000000000000000001011110010100 U%
#58
b00000000000000000001011110101000 #
b00000000000000000010000000010100 +
b01111 k
b10100 %!
b00000001010001111010011110000011 E!
b00000000000000000000000000010100 M!
b00000000000000000010000000010100 u!
b00000000000000000000000000010100 ?"
b00000001010001111010011110000011 ]%
b00000000000000000010000000010100 e%
#59
b00000001001000110100010101100111 s
0E%
b00000001001000110100010101100111 ?&
b00000001001000110100010101100111 o&
#60
#61
b00000000000000000001011110101100 #
b00000001001000110100010101111011 +
b00000001001000110100010101100111 -!
b00000001001000110100010101111011 u!
b11 O"
b00000000000000000001011110011000 W"
b00000001001000110100010101100111 y#
1E%
b00000000000000000001011110011000 U%
b00000001001000110100010101111011 e%
#62
b00000000000000000001011101110000 #
b00000000000000000000111111011000 +
1;
1C
1K
1S
1[
0c
b11000 k
b00000000000000000000111111011000 s
b01000 {
b01010 %!
b00000000000000000001000000000000 -!
b11111100101001000010110000100011 E!
b11111111111111111111111111011000 M!
0]!
1e!
b00 m!
b00000000000000000000111111011000 u!
b0100011 '"
b01000 /"
b11111111111111111111111111011000 ?"
b1111110 G"
b00 O"
b11111100101001000010110000100011 ]%
b00000000000000000000111111011000 e%
1u%
1}%
1'&
1/&
17&
b00000000000000000000000000000000 ?&
b00000000000000000000000000000000 o&
#63
0E%
#64
#65
b00000000000000000001011101110100 #
b00000000000000000001011110011100 W"
1E%
b00000000000000000001011110011100 U%
#66
b00000000000000000001011101111000 #
b00000000000000000000111111011100 +
b00001111000000000000000000000000 3
b11100 k
b00000000000000000000111111011100 s
b01011 %!
b00001111000000000000000000000000 5!
b11111100101101000010111000100011 E!
b11111111111111111111111111011100 M!
b00000000000000000000111111011100 u!
b11111111111111111111111111011100 ?"
b11111100101101000010111000100011 ]%
b00000000000000000000111111011100 e%
b00001111000000000000000000000000 m%
#67
0E%
#68
b00001111000000000000000000000000 ?&
#69
b00000000000000000001011101111100 #
b00000000000000000001011110100000 W"
1E%
b00000000000000000001011110100000 U%
#70
b00000000000000000001011110000000 #
b00000000000000000000111111100000 +
b00000000000000000000000000000000 3
b00000 k
b00000000000000000000111111100000 s
b01100 %!
b00000000000000000000000000000000 5!
b11111110110001000010000000100011 E!
b11111111111111111111111111100000 M!
b00000000000000000000111111100000 u!
b11111111111111111111111111100000 ?"
b1111111 G"
b11111110110001000010000000100011 ]%
b00000000000000000000111111100000 e%
b00000000000000000000000000000000 m%
#71
0E%
b00000000000000000000000000000000 ?&
#72
#73
b00000000000000000001011110000100 #
b00000000000000000001011110100100 W"
1E%
b00000000000000000001011110100100 U%
#74
b00000000000000000001011110001000 #
b00000000000000000000111111100100 +
b00100 k
b00000000000000000000111111100100 s
b01101 %!
b11111110110101000010001000100011 E!
b11111111111111111111111111100100 M!
b00000000000000000000111111100100 u!
b11111111111111111111111111100100 ?"
b11111110110101000010001000100011 ]%
b00000000000000000000111111100100 e%
#75
0E%
#76
#77
b00000000000000000001011110001100 #
b00000000000000000001011110101000 W"
1E%
b00000000000000000001011110101000 U%
#78
b00000000000000000001011110010000 #
b00000000000000000000111111101000 +
b10001001101010111100110111101111 3
b01000 k
b00000000000000000000111111101000 s
b01110 %!
b10001001101010111100110111101111 5!
b11111110111001000010010000100011 E!
b11111111111111111111111111101000 M!
b00000000000000000000111111101000 u!
b11111111111111111111111111101000 ?"
b11111110111001000010010000100011 ]%
b00000000000000000000111111101000 e%
b10001001101010111100110111101111 m%
#79
0E%
#80
b10001001101010111100110111101111 ?&
#81
b00000000000000000001011110010100 #
b00000000000000000001011110101100 W"
1E%
b00000000000000000001011110101100 U%
#82
b00000000000000000001011110011000 #
b00000000000000000000111111101100 +
b00000001001000110100010101100111 3
b01100 k
b00000000000000000000111111101100 s
b01111 %!
b00000001001000110100010101100111 5!
b11111110111101000010011000100011 E!
b11111111111111111111111111101100 M!
b00000000000000000000111111101100 u!
b11111111111111111111111111101100 ?"
b11111110111101000010011000100011 ]%
b00000000000000000000111111101100 e%
b00000001001000110100010101100111 m%
#83
0E%
b00000000000000000000000000000000 ?&
#84
b00000001001000110100010101100111 ?&
#85
b00000000000000000001011110011100 #
b00000000000000000001011110110000 W"
1E%
b00000000000000000001011110110000 U%
#86
b00000000000000000001011110001000 #
b00000000000000000000111111011000 +
b00000000000000000000000000000000 3
0;
0C
0K
0S
0[
1c
b01110 k
b00000001001000110100010101100111 s
b11000 %!
b00000000000000000000000000000000 5!
b11111101100001000010011100000011 E!
b11111111111111111111111111011000 M!
1]!
0e!
b01 m!
b00000000000000000000111111011000 u!
b0000011 '"
b11111111111111111111111111011000 ?"
b1111110 G"
b11111101100001000010011100000011 ]%
b00000000000000000000111111011000 e%
b00000000000000000000000000000000 m%
0u%
0}%
0'&
0/&
07&
b00000001001000110100010101100111 o&
#87
b00000000000000000000000000000000 s
0E%
b00000000000000000000000000000000 ?&
b00000000000000000000000000000000 o&
#88
#89
b00000000000000000001011110001100 #
b00000000000000000001011110110100 W"
b00000000000000000000000000000000 q#
1E%
b00000000000000000001011110110100 U%
#90
b00000000000000000001011110010000 #
b00000000000000000000111111011100 +
b01111 k
b11100 %!
b11111101110001000010011110000011 E!
b11111111111111111111111111011100 M!
b00000000000000000000111111011100 u!
b11111111111111111111111111011100 ?"
b11111101110001000010011110000011 ]%
b00000000000000000000111111011100 e%
#91
b00001111000000000000000000000000 s
0E%
b00001111000000000000000000000000 ?&
b00001111000000000000000000000000 o&
#92
#93
b00000000000000000001011110010100 #
b00000000000000000001011110111000 W"
b00001111000000000000000000000000 y#
1E%
b00000000000000000001011110111000 U%
#94
b00000000000000000001011110111100 #
b00000000000000000000000000000100 +
b01001 k
b00000000000000000000000000000100 s
b00000 {
b00100 %!
b00000000000000000000000000000000 -!
b00000000010000000000010010010011 E!
b00000000000000000000000000000100 M!
0]!
b00 m!
b00000000000000000000000000000100 u!
b000 }!
b0010011 '"
b00000 /"
b00000000000000000000000000000100 ?"
b0000000 G"
b00000000010000000000010010010011 ]%
b00000000000000000000000000000100 e%
b00000000000000000000000000000000 o&
#95
0E%
b00000000000000000000000000000000 ?&
#96
#97
b00000000000000000001011111000000 #
b00000000000000000001011110111100 W"
b00000000000000000000000000000100 I#
1E%
b00000000000000000001011110111100 U%
#98
b01100 k
b00000000010000000000011000010011 E!
b00000000010000000000011000010011 ]%
#99
0E%
#100
#101
b00000000000000000001011111000100 #
b00000000000000000001011111000000 W"
b00000000000000000000000000000100 a#
1E%
b00000000000000000001011111000000 U%
#102
b00000000000000000001011111000000 #
b00000000000000000000000000000000 +
b01010 k
b00000000000000000000000000000000 s
b01110 {
b00000 %!
b00000000000001110000010100010011 E!
b00000000000000000000000000000000 M!
b00000000000000000000000000000000 u!
b01110 /"
b00000000000000000000000000000000 ?"
b00000000000001110000010100010011 ]%
b00000000000000000000000000000000 e%
#103
0E%
#104
#105
b00000000000000000001011111000100 #
b00000000000000000001011111000100 W"
1E%
b00000000000000000001011111000100 U%
#106
b00001111000000000000000000000000 +
b01011 k
b00001111000000000000000000000000 s
b01111 {
b00001111000000000000000000000000 -!
b00000000000001111000010110010011 E!
b00001111000000000000000000000000 u!
b01111 /"
b00000000000001111000010110010011 ]%
b00001111000000000000000000000000 e%
#107
0E%
#108
#109
b00000000000000000001011111001000 #
b00000000000000000001011111001000 W"
1E%
b00000000000000000001011111001000 U%
#110
b00000000000000000001010111001100 #
b00011111111111111111111000000100 +
b00001 k
b00000000000000000001011111001100 s
b11111 {
b00101 %!
b00000000000000000000000000000000 -!
1=!
b11100000010111111111000011101111 E!
b11111111111111111111111000000100 M!
b11 m!
b11111111111111111111111000000100 u!
b111 }!
b1101111 '"
b11111 /"
b11111111111111111111111000000100 ?"
b1110000 G"
b11100000010111111111000011101111 ]%
b00011111111111111111111000000100 e%
#111
0E%
#112
