test_run_dir/InstructionFetch_of_Single_Cycle_CPU_should_fetch_instruction/InstructionFetch.vcd
$version Generated by VerilatedVcd $end
$date Wed Nov 22 11:31:06 2023
 $end
$timescale   1ns $end

 $scope module TOP $end
  $var wire  1 + clock $end
  $var wire 32 c io_instruction [31:0] $end
  $var wire 32 [ io_instruction_address [31:0] $end
  $var wire 32 K io_instruction_read_data [31:0] $end
  $var wire  1 S io_instruction_valid $end
  $var wire 32 C io_jump_address_id [31:0] $end
  $var wire  1 ; io_jump_flag_id $end
  $var wire  1 3 reset $end
  $scope module InstructionFetch $end
   $var wire  1 + clock $end
   $var wire 32 c io_instruction [31:0] $end
   $var wire 32 [ io_instruction_address [31:0] $end
   $var wire 32 K io_instruction_read_data [31:0] $end
   $var wire  1 S io_instruction_valid $end
   $var wire 32 C io_jump_address_id [31:0] $end
   $var wire  1 ; io_jump_flag_id $end
   $var wire 32 # pc [31:0] $end
   $var wire  1 3 reset $end
  $upscope $end
 $upscope $end
$enddefinitions $end


#0
b00000000000000000000000000000000 #
0+
13
0;
b00000000000000000000000000000000 C
b00000000000000000000000000000000 K
0S
b00000000000000000000000000000000 [
b00000000000000000000000000010011 c
#1
b00000000000000000001000000000000 #
1+
b00000000000000000001000000000000 [
#2
0+
03
1;
b00000000000000000001000000000000 C
1S
b00000000000000000000000000000000 c
#3
1+
#4
0+
0;
#5
b00000000000000000001000000000100 #
1+
b00000000000000000001000000000100 [
#6
0+
#7
b00000000000000000001000000001000 #
1+
b00000000000000000001000000001000 [
#8
0+
1;
#9
b00000000000000000001000000000000 #
1+
b00000000000000000001000000000000 [
#10
0+
0;
#11
b00000000000000000001000000000100 #
1+
b00000000000000000001000000000100 [
#12
0+
1;
#13
b00000000000000000001000000000000 #
1+
b00000000000000000001000000000000 [
#14
0+
0;
#15
b00000000000000000001000000000100 #
1+
b00000000000000000001000000000100 [
#16
0+
#17
b00000000000000000001000000001000 #
1+
b00000000000000000001000000001000 [
#18
0+
1;
#19
b00000000000000000001000000000000 #
1+
b00000000000000000001000000000000 [
#20
0+
0;
#21
b00000000000000000001000000000100 #
1+
b00000000000000000001000000000100 [
#22
0+
1;
#23
b00000000000000000001000000000000 #
1+
b00000000000000000001000000000000 [
#24
0+
#25
1+
#26
0+
0;
#27
b00000000000000000001000000000100 #
1+
b00000000000000000001000000000100 [
#28
0+
1;
#29
b00000000000000000001000000000000 #
1+
b00000000000000000001000000000000 [
#30
0+
#31
1+
#32
0+
#33
1+
#34
0+
0;
#35
b00000000000000000001000000000100 #
1+
b00000000000000000001000000000100 [
#36
0+
#37
b00000000000000000001000000001000 #
1+
b00000000000000000001000000001000 [
#38
0+
1;
#39
b00000000000000000001000000000000 #
1+
b00000000000000000001000000000000 [
#40
0+
0;
#41
b00000000000000000001000000000100 #
1+
b00000000000000000001000000000100 [
#42
0+
#43
b00000000000000000001000000001000 #
1+
b00000000000000000001000000001000 [
#44
0+
1;
#45
b00000000000000000001000000000000 #
1+
b00000000000000000001000000000000 [
#46
0+
#47
1+
#48
0+
0;
#49
b00000000000000000001000000000100 #
1+
b00000000000000000001000000000100 [
#50
0+
1;
#51
b00000000000000000001000000000000 #
1+
b00000000000000000001000000000000 [
#52
0+
#53
1+
#54
0+
#55
1+
#56
0+
0;
#57
b00000000000000000001000000000100 #
1+
b00000000000000000001000000000100 [
#58
0+
1;
#59
b00000000000000000001000000000000 #
1+
b00000000000000000001000000000000 [
#60
0+
#61
1+
#62
0+
#63
1+
#64
0+
#65
1+
#66
0+
0;
#67
b00000000000000000001000000000100 #
1+
b00000000000000000001000000000100 [
#68
0+
1;
#69
b00000000000000000001000000000000 #
1+
b00000000000000000001000000000000 [
#70
0+
0;
#71
b00000000000000000001000000000100 #
1+
b00000000000000000001000000000100 [
#72
0+
1;
#73
b00000000000000000001000000000000 #
1+
b00000000000000000001000000000000 [
#74
0+
0;
#75
b00000000000000000001000000000100 #
1+
b00000000000000000001000000000100 [
#76
0+
1;
#77
b00000000000000000001000000000000 #
1+
b00000000000000000001000000000000 [
#78
0+
#79
1+
#80
0+
0;
#81
b00000000000000000001000000000100 #
1+
b00000000000000000001000000000100 [
#82
0+
#83
b00000000000000000001000000001000 #
1+
b00000000000000000001000000001000 [
#84
0+
1;
#85
b00000000000000000001000000000000 #
1+
b00000000000000000001000000000000 [
#86
0+
0;
#87
b00000000000000000001000000000100 #
1+
b00000000000000000001000000000100 [
#88
0+
#89
b00000000000000000001000000001000 #
1+
b00000000000000000001000000001000 [
#90
0+
#91
b00000000000000000001000000001100 #
1+
b00000000000000000001000000001100 [
#92
0+
#93
b00000000000000000001000000010000 #
1+
b00000000000000000001000000010000 [
#94
0+
#95
b00000000000000000001000000010100 #
1+
b00000000000000000001000000010100 [
#96
0+
#97
b00000000000000000001000000011000 #
1+
b00000000000000000001000000011000 [
#98
0+
1;
#99
b00000000000000000001000000000000 #
1+
b00000000000000000001000000000000 [
#100
0+
#101
1+
#102
0+
#103
1+
#104
0+
0;
#105
b00000000000000000001000000000100 #
1+
b00000000000000000001000000000100 [
#106
0+
1;
#107
b00000000000000000001000000000000 #
1+
b00000000000000000001000000000000 [
#108
0+
0;
#109
b00000000000000000001000000000100 #
1+
b00000000000000000001000000000100 [
#110
0+
1;
#111
b00000000000000000001000000000000 #
1+
b00000000000000000001000000000000 [
#112
0+
0;
#113
b00000000000000000001000000000100 #
1+
b00000000000000000001000000000100 [
#114
0+
1;
#115
b00000000000000000001000000000000 #
1+
b00000000000000000001000000000000 [
#116
0+
0;
#117
b00000000000000000001000000000100 #
1+
b00000000000000000001000000000100 [
#118
0+
1;
#119
b00000000000000000001000000000000 #
1+
b00000000000000000001000000000000 [
#120
0+
#121
1+
#122
0+
#123
1+
#124
0+
0;
#125
b00000000000000000001000000000100 #
1+
b00000000000000000001000000000100 [
#126
0+
#127
b00000000000000000001000000001000 #
1+
b00000000000000000001000000001000 [
#128
0+
#129
b00000000000000000001000000001100 #
1+
b00000000000000000001000000001100 [
#130
0+
#131
b00000000000000000001000000010000 #
1+
b00000000000000000001000000010000 [
#132
0+
#133
b00000000000000000001000000010100 #
1+
b00000000000000000001000000010100 [
#134
0+
#135
b00000000000000000001000000011000 #
1+
b00000000000000000001000000011000 [
#136
0+
1;
#137
b00000000000000000001000000000000 #
1+
b00000000000000000001000000000000 [
#138
0+
0;
#139
b00000000000000000001000000000100 #
1+
b00000000000000000001000000000100 [
#140
0+
1;
#141
b00000000000000000001000000000000 #
1+
b00000000000000000001000000000000 [
#142
0+
#143
1+
#144
0+
0;
#145
b00000000000000000001000000000100 #
1+
b00000000000000000001000000000100 [
#146
0+
#147
b00000000000000000001000000001000 #
1+
b00000000000000000001000000001000 [
#148
0+
#149
b00000000000000000001000000001100 #
1+
b00000000000000000001000000001100 [
#150
0+
#151
b00000000000000000001000000010000 #
1+
b00000000000000000001000000010000 [
#152
0+
#153
b00000000000000000001000000010100 #
1+
b00000000000000000001000000010100 [
#154
0+
1;
#155
b00000000000000000001000000000000 #
1+
b00000000000000000001000000000000 [
#156
0+
#157
1+
#158
0+
#159
1+
#160
0+
#161
1+
#162
0+
#163
1+
#164
0+
0;
#165
b00000000000000000001000000000100 #
1+
b00000000000000000001000000000100 [
#166
0+
#167
b00000000000000000001000000001000 #
1+
b00000000000000000001000000001000 [
#168
0+
#169
b00000000000000000001000000001100 #
1+
b00000000000000000001000000001100 [
#170
0+
1;
#171
b00000000000000000001000000000000 #
1+
b00000000000000000001000000000000 [
#172
0+
#173
1+
#174
0+
0;
#175
b00000000000000000001000000000100 #
1+
b00000000000000000001000000000100 [
#176
0+
1;
#177
b00000000000000000001000000000000 #
1+
b00000000000000000001000000000000 [
#178
0+
#179
1+
#180
0+
#181
1+
#182
0+
#183
1+
#184
0+
#185
1+
#186
0+
#187
1+
#188
0+
#189
1+
#190
0+
#191
1+
#192
0+
#193
1+
#194
0+
0;
#195
b00000000000000000001000000000100 #
1+
b00000000000000000001000000000100 [
#196
0+
#197
b00000000000000000001000000001000 #
1+
b00000000000000000001000000001000 [
#198
0+
#199
b00000000000000000001000000001100 #
1+
b00000000000000000001000000001100 [
#200
0+
#201
b00000000000000000001000000010000 #
1+
b00000000000000000001000000010000 [
#202
0+
1;
#203
b00000000000000000001000000000000 #
1+
b00000000000000000001000000000000 [
