test_run_dir/Single_Cycle_CPU_should_store_and_load_a_single_byte/TestTopModule.vcd
$version Generated by VerilatedVcd $end
$date Wed Nov 22 11:30:59 2023
 $end
$timescale   1ns $end

 $scope module TOP $end
  $var wire  1 Q+ clock $end
  $var wire 32 a+ io_mem_debug_read_address [31:0] $end
  $var wire 32 y+ io_mem_debug_read_data [31:0] $end
  $var wire  5 i+ io_regs_debug_read_address [4:0] $end
  $var wire 32 q+ io_regs_debug_read_data [31:0] $end
  $var wire  1 Y+ reset $end
  $scope module TestTopModule $end
   $var wire  2 E% CPU_clkdiv [1:0] $end
   $var wire  1 Q+ clock $end
   $var wire  1 =% cpu_clock $end
   $var wire  5 i+ cpu_io_debug_read_address [4:0] $end
   $var wire 32 #, cpu_io_debug_read_data [31:0] $end
   $var wire 32 -% cpu_io_instruction [31:0] $end
   $var wire 32 ;( cpu_io_instruction_address [31:0] $end
   $var wire  1 A+ cpu_io_instruction_valid $end
   $var wire 32 #$ cpu_io_memory_bundle_address [31:0] $end
   $var wire 32 U! cpu_io_memory_bundle_read_data [31:0] $end
   $var wire 32 9# cpu_io_memory_bundle_write_data [31:0] $end
   $var wire  1 M! cpu_io_memory_bundle_write_enable $end
   $var wire  1 A# cpu_io_memory_bundle_write_strobe_0 $end
   $var wire  1 I# cpu_io_memory_bundle_write_strobe_1 $end
   $var wire  1 Q# cpu_io_memory_bundle_write_strobe_2 $end
   $var wire  1 Y# cpu_io_memory_bundle_write_strobe_3 $end
   $var wire  1 Y+ cpu_reset $end
   $var wire  1 Q+ instruction_rom_clock $end
   $var wire 32 )+ instruction_rom_io_address [31:0] $end
   $var wire 32 =! instruction_rom_io_data [31:0] $end
   $var wire 32 a+ io_mem_debug_read_address [31:0] $end
   $var wire 32 y+ io_mem_debug_read_data [31:0] $end
   $var wire  5 i+ io_regs_debug_read_address [4:0] $end
   $var wire 32 q+ io_regs_debug_read_data [31:0] $end
   $var wire  1 Q+ mem_clock $end
   $var wire 32 q# mem_io_bundle_address [31:0] $end
   $var wire 32 %% mem_io_bundle_read_data [31:0] $end
   $var wire 32 y# mem_io_bundle_write_data [31:0] $end
   $var wire  1 5! mem_io_bundle_write_enable $end
   $var wire  1 w" mem_io_bundle_write_strobe_0 $end
   $var wire  1 !# mem_io_bundle_write_strobe_1 $end
   $var wire  1 )# mem_io_bundle_write_strobe_2 $end
   $var wire  1 1# mem_io_bundle_write_strobe_3 $end
   $var wire 32 a+ mem_io_debug_read_address [31:0] $end
   $var wire 32 5% mem_io_debug_read_data [31:0] $end
   $var wire 32 -% mem_io_instruction [31:0] $end
   $var wire 32 ;( mem_io_instruction_address [31:0] $end
   $var wire  1 Y+ reset $end
   $var wire  1 Q+ rom_loader_clock $end
   $var wire 32 1+ rom_loader_io_bundle_address [31:0] $end
   $var wire 32 E! rom_loader_io_bundle_write_data [31:0] $end
   $var wire  1 9+ rom_loader_io_bundle_write_enable $end
   $var wire  1 9+ rom_loader_io_bundle_write_strobe_0 $end
   $var wire  1 9+ rom_loader_io_bundle_write_strobe_1 $end
   $var wire  1 9+ rom_loader_io_bundle_write_strobe_2 $end
   $var wire  1 9+ rom_loader_io_bundle_write_strobe_3 $end
   $var wire  1 A+ rom_loader_io_load_finished $end
   $var wire 32 )+ rom_loader_io_rom_address [31:0] $end
   $var wire 32 =! rom_loader_io_rom_data [31:0] $end
   $var wire  1 Y+ rom_loader_reset $end
   $scope module cpu $end
    $var wire  1 =% clock $end
    $var wire  1 /" ex_io_aluop2_source $end
    $var wire 32 -! ex_io_if_jump_address [31:0] $end
    $var wire  1 a# ex_io_if_jump_flag $end
    $var wire 32 '" ex_io_immediate [31:0] $end
    $var wire 32 }! ex_io_instruction [31:0] $end
    $var wire 32 ;( ex_io_instruction_address [31:0] $end
    $var wire 32 k$ ex_io_mem_alu_result [31:0] $end
    $var wire 32 [$ ex_io_reg1_data [31:0] $end
    $var wire 32 c$ ex_io_reg2_data [31:0] $end
    $var wire  1 /" id_io_ex_aluop2_source $end
    $var wire 32 '" id_io_ex_immediate [31:0] $end
    $var wire 32 }! id_io_instruction [31:0] $end
    $var wire  1 7" id_io_memory_read_enable $end
    $var wire  1 ?" id_io_memory_write_enable $end
    $var wire  5 e! id_io_reg_write_address [4:0] $end
    $var wire  1 ]! id_io_reg_write_enable $end
    $var wire  5 m! id_io_regs_reg1_read_address [4:0] $end
    $var wire  5 u! id_io_regs_reg2_read_address [4:0] $end
    $var wire  2 G" id_io_wb_reg_write_source [1:0] $end
    $var wire  1 %! inst_fetch_clock $end
    $var wire 32 }! inst_fetch_io_instruction [31:0] $end
    $var wire 32 ;( inst_fetch_io_instruction_address [31:0] $end
    $var wire 32 -% inst_fetch_io_instruction_read_data [31:0] $end
    $var wire  1 A+ inst_fetch_io_instruction_valid $end
    $var wire 32 -! inst_fetch_io_jump_address_id [31:0] $end
    $var wire  1 a# inst_fetch_io_jump_flag_id $end
    $var wire  1 Y+ inst_fetch_reset $end
    $var wire  5 i+ io_debug_read_address [4:0] $end
    $var wire 32 #, io_debug_read_data [31:0] $end
    $var wire 32 -% io_instruction [31:0] $end
    $var wire 32 ;( io_instruction_address [31:0] $end
    $var wire  1 A+ io_instruction_valid $end
    $var wire 32 #$ io_memory_bundle_address [31:0] $end
    $var wire 32 U! io_memory_bundle_read_data [31:0] $end
    $var wire 32 9# io_memory_bundle_write_data [31:0] $end
    $var wire  1 M! io_memory_bundle_write_enable $end
    $var wire  1 A# io_memory_bundle_write_strobe_0 $end
    $var wire  1 I# io_memory_bundle_write_strobe_1 $end
    $var wire  1 Q# io_memory_bundle_write_strobe_2 $end
    $var wire  1 Y# io_memory_bundle_write_strobe_3 $end
    $var wire 32 k$ mem_io_alu_result [31:0] $end
    $var wire  3 O" mem_io_funct3 [2:0] $end
    $var wire 32 k$ mem_io_memory_bundle_address [31:0] $end
    $var wire 32 U! mem_io_memory_bundle_read_data [31:0] $end
    $var wire 32 9# mem_io_memory_bundle_write_data [31:0] $end
    $var wire  1 M! mem_io_memory_bundle_write_enable $end
    $var wire  1 A# mem_io_memory_bundle_write_strobe_0 $end
    $var wire  1 I# mem_io_memory_bundle_write_strobe_1 $end
    $var wire  1 Q# mem_io_memory_bundle_write_strobe_2 $end
    $var wire  1 Y# mem_io_memory_bundle_write_strobe_3 $end
    $var wire  1 7" mem_io_memory_read_enable $end
    $var wire  1 ?" mem_io_memory_write_enable $end
    $var wire 32 c$ mem_io_reg2_data [31:0] $end
    $var wire 32 i# mem_io_wb_memory_read_data [31:0] $end
    $var wire  1 %! regs_clock $end
    $var wire  5 i+ regs_io_debug_read_address [4:0] $end
    $var wire 32 #, regs_io_debug_read_data [31:0] $end
    $var wire  5 m! regs_io_read_address1 [4:0] $end
    $var wire  5 u! regs_io_read_address2 [4:0] $end
    $var wire 32 [$ regs_io_read_data1 [31:0] $end
    $var wire 32 c$ regs_io_read_data2 [31:0] $end
    $var wire  5 e! regs_io_write_address [4:0] $end
    $var wire 32 S$ regs_io_write_data [31:0] $end
    $var wire  1 ]! regs_io_write_enable $end
    $var wire  1 Y+ regs_reset $end
    $var wire  1 Y+ reset $end
    $var wire 32 k$ wb_io_alu_result [31:0] $end
    $var wire 32 ;( wb_io_instruction_address [31:0] $end
    $var wire 32 i# wb_io_memory_read_data [31:0] $end
    $var wire 32 S$ wb_io_regs_write_data [31:0] $end
    $var wire  2 G" wb_io_regs_write_source [1:0] $end
    $scope module ex $end
     $var wire  4 g" alu_ctrl_io_alu_funct [3:0] $end
     $var wire  3 O" alu_ctrl_io_funct3 [2:0] $end
     $var wire  7 o" alu_ctrl_io_funct7 [6:0] $end
     $var wire  7 W" alu_ctrl_io_opcode [6:0] $end
     $var wire  4 g" alu_io_func [3:0] $end
     $var wire 32 [$ alu_io_op1 [31:0] $end
     $var wire 32 s$ alu_io_op2 [31:0] $end
     $var wire 32 k$ alu_io_result [31:0] $end
     $var wire  3 O" funct3 [2:0] $end
     $var wire  1 /" io_aluop2_source $end
     $var wire 32 -! io_if_jump_address [31:0] $end
     $var wire  1 a# io_if_jump_flag $end
     $var wire 32 '" io_immediate [31:0] $end
     $var wire 32 }! io_instruction [31:0] $end
     $var wire 32 ;( io_instruction_address [31:0] $end
     $var wire 32 k$ io_mem_alu_result [31:0] $end
     $var wire 32 [$ io_reg1_data [31:0] $end
     $var wire 32 c$ io_reg2_data [31:0] $end
     $var wire  7 W" opcode [6:0] $end
     $scope module alu $end
      $var wire  4 g" io_func [3:0] $end
      $var wire 32 [$ io_op1 [31:0] $end
      $var wire 32 s$ io_op2 [31:0] $end
      $var wire 32 k$ io_result [31:0] $end
     $upscope $end
     $scope module alu_ctrl $end
      $var wire  4 g" io_alu_funct [3:0] $end
      $var wire  3 O" io_funct3 [2:0] $end
      $var wire  7 o" io_funct7 [6:0] $end
      $var wire  7 W" io_opcode [6:0] $end
     $upscope $end
    $upscope $end
    $scope module id $end
     $var wire  1 /" io_ex_aluop2_source $end
     $var wire 32 '" io_ex_immediate [31:0] $end
     $var wire 32 }! io_instruction [31:0] $end
     $var wire  1 7" io_memory_read_enable $end
     $var wire  1 ?" io_memory_write_enable $end
     $var wire  5 e! io_reg_write_address [4:0] $end
     $var wire  1 ]! io_reg_write_enable $end
     $var wire  5 m! io_regs_reg1_read_address [4:0] $end
     $var wire  5 u! io_regs_reg2_read_address [4:0] $end
     $var wire  2 G" io_wb_reg_write_source [1:0] $end
     $var wire  7 W" opcode [6:0] $end
     $var wire  5 e! rd [4:0] $end
     $var wire  5 _" rs1 [4:0] $end
    $upscope $end
    $scope module inst_fetch $end
     $var wire  1 %! clock $end
     $var wire 32 }! io_instruction [31:0] $end
     $var wire 32 ;( io_instruction_address [31:0] $end
     $var wire 32 -% io_instruction_read_data [31:0] $end
     $var wire  1 A+ io_instruction_valid $end
     $var wire 32 -! io_jump_address_id [31:0] $end
     $var wire  1 a# io_jump_flag_id $end
     $var wire 32 ;( pc [31:0] $end
     $var wire  1 Y+ reset $end
    $upscope $end
    $scope module mem $end
     $var wire 32 k$ io_alu_result [31:0] $end
     $var wire  3 O" io_funct3 [2:0] $end
     $var wire 32 k$ io_memory_bundle_address [31:0] $end
     $var wire 32 U! io_memory_bundle_read_data [31:0] $end
     $var wire 32 9# io_memory_bundle_write_data [31:0] $end
     $var wire  1 M! io_memory_bundle_write_enable $end
     $var wire  1 A# io_memory_bundle_write_strobe_0 $end
     $var wire  1 I# io_memory_bundle_write_strobe_1 $end
     $var wire  1 Q# io_memory_bundle_write_strobe_2 $end
     $var wire  1 Y# io_memory_bundle_write_strobe_3 $end
     $var wire  1 7" io_memory_read_enable $end
     $var wire  1 ?" io_memory_write_enable $end
     $var wire 32 c$ io_reg2_data [31:0] $end
     $var wire 32 i# io_wb_memory_read_data [31:0] $end
     $var wire  2 {$ mem_address_index [1:0] $end
    $upscope $end
    $scope module regs $end
     $var wire  1 %! clock $end
     $var wire  5 i+ io_debug_read_address [4:0] $end
     $var wire 32 #, io_debug_read_data [31:0] $end
     $var wire  5 m! io_read_address1 [4:0] $end
     $var wire  5 u! io_read_address2 [4:0] $end
     $var wire 32 [$ io_read_data1 [31:0] $end
     $var wire 32 c$ io_read_data2 [31:0] $end
     $var wire  5 e! io_write_address [4:0] $end
     $var wire 32 S$ io_write_data [31:0] $end
     $var wire  1 ]! io_write_enable $end
     $var wire 32 C( registers_0 [31:0] $end
     $var wire 32 K( registers_1 [31:0] $end
     $var wire 32 5) registers_10 [31:0] $end
     $var wire 32 =) registers_11 [31:0] $end
     $var wire 32 E) registers_12 [31:0] $end
     $var wire 32 M) registers_13 [31:0] $end
     $var wire 32 U) registers_14 [31:0] $end
     $var wire 32 ]) registers_15 [31:0] $end
     $var wire 32 e) registers_16 [31:0] $end
     $var wire 32 m) registers_17 [31:0] $end
     $var wire 32 u) registers_18 [31:0] $end
     $var wire 32 }) registers_19 [31:0] $end
     $var wire 32 S( registers_2 [31:0] $end
     $var wire 32 '* registers_20 [31:0] $end
     $var wire 32 /* registers_21 [31:0] $end
     $var wire 32 7* registers_22 [31:0] $end
     $var wire 32 ?* registers_23 [31:0] $end
     $var wire 32 G* registers_24 [31:0] $end
     $var wire 32 O* registers_25 [31:0] $end
     $var wire 32 W* registers_26 [31:0] $end
     $var wire 32 _* registers_27 [31:0] $end
     $var wire 32 g* registers_28 [31:0] $end
     $var wire 32 o* registers_29 [31:0] $end
     $var wire 32 [( registers_3 [31:0] $end
     $var wire 32 w* registers_30 [31:0] $end
     $var wire 32 !+ registers_31 [31:0] $end
     $var wire 32 c( registers_4 [31:0] $end
     $var wire 32 k( registers_5 [31:0] $end
     $var wire 32 s( registers_6 [31:0] $end
     $var wire 32 {( registers_7 [31:0] $end
     $var wire 32 %) registers_8 [31:0] $end
     $var wire 32 -) registers_9 [31:0] $end
     $var wire  1 Y+ reset $end
    $upscope $end
    $scope module wb $end
     $var wire 32 k$ io_alu_result [31:0] $end
     $var wire 32 ;( io_instruction_address [31:0] $end
     $var wire 32 i# io_memory_read_data [31:0] $end
     $var wire 32 S$ io_regs_write_data [31:0] $end
     $var wire  2 G" io_regs_write_source [1:0] $end
    $upscope $end
   $upscope $end
   $scope module instruction_rom $end
    $var wire  1 Q+ clock $end
    $var wire 32 3, initvar [31:0] $end
    $var wire 32 )+ io_address [31:0] $end
    $var wire 32 =! io_data [31:0] $end
    $var wire 32 # mem(0) [31:0] $end
    $var wire 32 $ mem(1) [31:0] $end
    $var wire 32 - mem(10) [31:0] $end
    $var wire 32 . mem(11) [31:0] $end
    $var wire 32 % mem(2) [31:0] $end
    $var wire 32 & mem(3) [31:0] $end
    $var wire 32 ' mem(4) [31:0] $end
    $var wire 32 ( mem(5) [31:0] $end
    $var wire 32 ) mem(6) [31:0] $end
    $var wire 32 * mem(7) [31:0] $end
    $var wire 32 + mem(8) [31:0] $end
    $var wire 32 , mem(9) [31:0] $end
    $var wire  4 I+ mem_io_data_MPORT_addr [3:0] $end
    $var wire 32 =! mem_io_data_MPORT_data [31:0] $end
    $var wire  1 +, mem_io_data_MPORT_en $end
   $upscope $end
   $scope module mem $end
    $var wire  1 Q+ clock $end
    $var wire 32 q# io_bundle_address [31:0] $end
    $var wire 32 %% io_bundle_read_data [31:0] $end
    $var wire 16 q' io_bundle_read_data_hi [15:0] $end
    $var wire 16 i' io_bundle_read_data_lo [15:0] $end
    $var wire 32 y# io_bundle_write_data [31:0] $end
    $var wire  1 5! io_bundle_write_enable $end
    $var wire  1 w" io_bundle_write_strobe_0 $end
    $var wire  1 !# io_bundle_write_strobe_1 $end
    $var wire  1 )# io_bundle_write_strobe_2 $end
    $var wire  1 1# io_bundle_write_strobe_3 $end
    $var wire 32 a+ io_debug_read_address [31:0] $end
    $var wire 32 5% io_debug_read_data [31:0] $end
    $var wire 16 #( io_debug_read_data_hi [15:0] $end
    $var wire 16 y' io_debug_read_data_lo [15:0] $end
    $var wire 32 -% io_instruction [31:0] $end
    $var wire 32 ;( io_instruction_address [31:0] $end
    $var wire 16 3( io_instruction_hi [15:0] $end
    $var wire 16 +( io_instruction_lo [15:0] $end
    $var wire 13 3$ mem_0_MPORT_addr [12:0] $end
    $var wire  8 +$ mem_0_MPORT_data [7:0] $end
    $var wire  1 5! mem_0_MPORT_en $end
    $var wire  1 w" mem_0_MPORT_mask $end
    $var wire 13 U% mem_0_io_bundle_read_data_MPORT_addr [12:0] $end
    $var wire 13 U% mem_0_io_bundle_read_data_MPORT_addr_pipe_0 [12:0] $end
    $var wire  8 ]% mem_0_io_bundle_read_data_MPORT_data [7:0] $end
    $var wire  1 M% mem_0_io_bundle_read_data_MPORT_en $end
    $var wire  1 M% mem_0_io_bundle_read_data_MPORT_en_pipe_0 $end
    $var wire 13 m% mem_0_io_debug_read_data_MPORT_addr [12:0] $end
    $var wire 13 m% mem_0_io_debug_read_data_MPORT_addr_pipe_0 [12:0] $end
    $var wire  8 u% mem_0_io_debug_read_data_MPORT_data [7:0] $end
    $var wire  1 e% mem_0_io_debug_read_data_MPORT_en $end
    $var wire  1 e% mem_0_io_debug_read_data_MPORT_en_pipe_0 $end
    $var wire 13 '& mem_0_io_instruction_MPORT_addr [12:0] $end
    $var wire 13 '& mem_0_io_instruction_MPORT_addr_pipe_0 [12:0] $end
    $var wire  8 /& mem_0_io_instruction_MPORT_data [7:0] $end
    $var wire  1 }% mem_0_io_instruction_MPORT_en $end
    $var wire  1 }% mem_0_io_instruction_MPORT_en_pipe_0 $end
    $var wire 13 3$ mem_1_MPORT_addr [12:0] $end
    $var wire  8 ;$ mem_1_MPORT_data [7:0] $end
    $var wire  1 5! mem_1_MPORT_en $end
    $var wire  1 !# mem_1_MPORT_mask $end
    $var wire 13 U% mem_1_io_bundle_read_data_MPORT_addr [12:0] $end
    $var wire 13 U% mem_1_io_bundle_read_data_MPORT_addr_pipe_0 [12:0] $end
    $var wire  8 ?& mem_1_io_bundle_read_data_MPORT_data [7:0] $end
    $var wire  1 7& mem_1_io_bundle_read_data_MPORT_en $end
    $var wire  1 7& mem_1_io_bundle_read_data_MPORT_en_pipe_0 $end
    $var wire 13 m% mem_1_io_debug_read_data_MPORT_addr [12:0] $end
    $var wire 13 m% mem_1_io_debug_read_data_MPORT_addr_pipe_0 [12:0] $end
    $var wire  8 O& mem_1_io_debug_read_data_MPORT_data [7:0] $end
    $var wire  1 G& mem_1_io_debug_read_data_MPORT_en $end
    $var wire  1 G& mem_1_io_debug_read_data_MPORT_en_pipe_0 $end
    $var wire 13 '& mem_1_io_instruction_MPORT_addr [12:0] $end
    $var wire 13 '& mem_1_io_instruction_MPORT_addr_pipe_0 [12:0] $end
    $var wire  8 _& mem_1_io_instruction_MPORT_data [7:0] $end
    $var wire  1 W& mem_1_io_instruction_MPORT_en $end
    $var wire  1 W& mem_1_io_instruction_MPORT_en_pipe_0 $end
    $var wire 13 3$ mem_2_MPORT_addr [12:0] $end
    $var wire  8 C$ mem_2_MPORT_data [7:0] $end
    $var wire  1 5! mem_2_MPORT_en $end
    $var wire  1 )# mem_2_MPORT_mask $end
    $var wire 13 U% mem_2_io_bundle_read_data_MPORT_addr [12:0] $end
    $var wire 13 U% mem_2_io_bundle_read_data_MPORT_addr_pipe_0 [12:0] $end
    $var wire  8 o& mem_2_io_bundle_read_data_MPORT_data [7:0] $end
    $var wire  1 g& mem_2_io_bundle_read_data_MPORT_en $end
    $var wire  1 g& mem_2_io_bundle_read_data_MPORT_en_pipe_0 $end
    $var wire 13 m% mem_2_io_debug_read_data_MPORT_addr [12:0] $end
    $var wire 13 m% mem_2_io_debug_read_data_MPORT_addr_pipe_0 [12:0] $end
    $var wire  8 !' mem_2_io_debug_read_data_MPORT_data [7:0] $end
    $var wire  1 w& mem_2_io_debug_read_data_MPORT_en $end
    $var wire  1 w& mem_2_io_debug_read_data_MPORT_en_pipe_0 $end
    $var wire 13 '& mem_2_io_instruction_MPORT_addr [12:0] $end
    $var wire 13 '& mem_2_io_instruction_MPORT_addr_pipe_0 [12:0] $end
    $var wire  8 1' mem_2_io_instruction_MPORT_data [7:0] $end
    $var wire  1 )' mem_2_io_instruction_MPORT_en $end
    $var wire  1 )' mem_2_io_instruction_MPORT_en_pipe_0 $end
    $var wire 13 3$ mem_3_MPORT_addr [12:0] $end
    $var wire  8 K$ mem_3_MPORT_data [7:0] $end
    $var wire  1 5! mem_3_MPORT_en $end
    $var wire  1 1# mem_3_MPORT_mask $end
    $var wire 13 U% mem_3_io_bundle_read_data_MPORT_addr [12:0] $end
    $var wire 13 U% mem_3_io_bundle_read_data_MPORT_addr_pipe_0 [12:0] $end
    $var wire  8 A' mem_3_io_bundle_read_data_MPORT_data [7:0] $end
    $var wire  1 9' mem_3_io_bundle_read_data_MPORT_en $end
    $var wire  1 9' mem_3_io_bundle_read_data_MPORT_en_pipe_0 $end
    $var wire 13 m% mem_3_io_debug_read_data_MPORT_addr [12:0] $end
    $var wire 13 m% mem_3_io_debug_read_data_MPORT_addr_pipe_0 [12:0] $end
    $var wire  8 Q' mem_3_io_debug_read_data_MPORT_data [7:0] $end
    $var wire  1 I' mem_3_io_debug_read_data_MPORT_en $end
    $var wire  1 I' mem_3_io_debug_read_data_MPORT_en_pipe_0 $end
    $var wire 13 '& mem_3_io_instruction_MPORT_addr [12:0] $end
    $var wire 13 '& mem_3_io_instruction_MPORT_addr_pipe_0 [12:0] $end
    $var wire  8 a' mem_3_io_instruction_MPORT_data [7:0] $end
    $var wire  1 Y' mem_3_io_instruction_MPORT_en $end
    $var wire  1 Y' mem_3_io_instruction_MPORT_en_pipe_0 $end
   $upscope $end
   $scope module rom_loader $end
    $var wire 32 )+ address [31:0] $end
    $var wire  1 Q+ clock $end
    $var wire 32 1+ io_bundle_address [31:0] $end
    $var wire 32 E! io_bundle_write_data [31:0] $end
    $var wire  1 9+ io_bundle_write_enable $end
    $var wire  1 9+ io_bundle_write_strobe_0 $end
    $var wire  1 9+ io_bundle_write_strobe_1 $end
    $var wire  1 9+ io_bundle_write_strobe_2 $end
    $var wire  1 9+ io_bundle_write_strobe_3 $end
    $var wire  1 A+ io_load_finished $end
    $var wire 32 )+ io_rom_address [31:0] $end
    $var wire 32 =! io_rom_data [31:0] $end
    $var wire  1 Y+ reset $end
    $var wire  1 A+ valid $end
   $upscope $end
  $upscope $end
 $upscope $end
$enddefinitions $end


#0
b00000000010000000000010100010011 #
b11011110101011011100001010110111 $
b11101110111100101000001010010011 %
b00000000010101010000000000100011 &
b00000000000001010010001100000011 '
b00000001010100000000100100010011 (
b00000001001001010000000010100011 )
b00000000000001010010000010000011 *
b00000000000000000000000001101111 +
b00000000000000000000000000010011 ,
b00000000000000000000000000010011 -
b00000000000000000000000000010011 .
1%!
b00000000000000000001000000000000 -!
15!
b00000000010000000000010100010011 =!
b00000000010000000000010100010011 E!
0M!
b00000000000000000000000000000000 U!
1]!
b00000 e!
b00000 m!
b00000 u!
b00000000000000000000000000010011 }!
b00000000000000000000000000000000 '"
1/"
07"
0?"
b00 G"
b000 O"
b0010011 W"
b00000 _"
b0001 g"
b0000000 o"
1w"
1!#
1)#
11#
b00000000000000000000000000000000 9#
0A#
0I#
0Q#
0Y#
0a#
b00000000000000000000000000000000 i#
b00000000000000000001000000000000 q#
b00000000010000000000010100010011 y#
b00000000000000000000000000000000 #$
b00010011 +$
b0010000000000 3$
b00000101 ;$
b01000000 C$
b00000000 K$
b00000000000000000000000000000000 S$
b00000000000000000000000000000000 [$
b00000000000000000000000000000000 c$
b00000000000000000000000000000000 k$
b00000000000000000000000000000000 s$
b00 {$
b00000000000000000000000000000000 %%
b00000000000000000000000000000000 -%
b00000000000000000000000000000000 5%
1=%
b00 E%
0M%
b0000000000000 U%
b00000000 ]%
0e%
b0000000000000 m%
b00000000 u%
0}%
b0000000000000 '&
b00000000 /&
07&
b00000000 ?&
0G&
b00000000 O&
0W&
b00000000 _&
0g&
b00000000 o&
0w&
b00000000 !'
0)'
b00000000 1'
09'
b00000000 A'
0I'
b00000000 Q'
0Y'
b00000000 a'
b0000000000000000 i'
b0000000000000000 q'
b0000000000000000 y'
b0000000000000000 #(
b0000000000000000 +(
b0000000000000000 3(
b00000000000000000001000000000000 ;(
b00000000000000000000000000000000 C(
b00000000000000000000000000000000 K(
b00000000000000000000000000000000 S(
b00000000000000000000000000000000 [(
b00000000000000000000000000000000 c(
b00000000000000000000000000000000 k(
b00000000000000000000000000000000 s(
b00000000000000000000000000000000 {(
b00000000000000000000000000000000 %)
b00000000000000000000000000000000 -)
b00000000000000000000000000000000 5)
b00000000000000000000000000000000 =)
b00000000000000000000000000000000 E)
b00000000000000000000000000000000 M)
b00000000000000000000000000000000 U)
b00000000000000000000000000000000 ])
b00000000000000000000000000000000 e)
b00000000000000000000000000000000 m)
b00000000000000000000000000000000 u)
b00000000000000000000000000000000 })
b00000000000000000000000000000000 '*
b00000000000000000000000000000000 /*
b00000000000000000000000000000000 7*
b00000000000000000000000000000000 ?*
b00000000000000000000000000000000 G*
b00000000000000000000000000000000 O*
b00000000000000000000000000000000 W*
b00000000000000000000000000000000 _*
b00000000000000000000000000000000 g*
b00000000000000000000000000000000 o*
b00000000000000000000000000000000 w*
b00000000000000000000000000000000 !+
b00000000000000000000000000000000 )+
b00000000000000000001000000000000 1+
19+
0A+
b0000 I+
0Q+
1Y+
b00000000000000000000000000000000 a+
b00000 i+
b00000000000000000000000000000000 q+
b00000000000000000000000000000000 y+
b00000000000000000000000000000000 #,
1+,
b00000000000000000000000000000000 3,
#1
b00000000010000000000010100010011 %%
b00000000010000000000010100010011 -%
1M%
b0010000000000 U%
b00010011 ]%
1e%
1}%
b0010000000000 '&
b00010011 /&
17&
b00000101 ?&
1G&
1W&
b00000101 _&
1g&
b01000000 o&
1w&
1)'
b01000000 1'
19'
1I'
1Y'
b0000010100010011 i'
b0000000001000000 q'
b0000010100010011 +(
b0000000001000000 3(
1Q+
#2
0Q+
0Y+
#3
0%!
b11011110101011011100001010110111 =!
b11011110101011011100001010110111 E!
b00000000000000000001000000000100 q#
b11011110101011011100001010110111 y#
b10110111 +$
b0010000000001 3$
b11000010 ;$
b10101101 C$
b11011110 K$
0=%
b01 E%
b00000000000000000000000000000001 )+
b00000000000000000001000000000100 1+
b0001 I+
1Q+
#4
0Q+
b00000000000000000000000000000100 a+
#5
b11101110111100101000001010010011 =!
b11101110111100101000001010010011 E!
b00000000000000000001000000001000 q#
b11101110111100101000001010010011 y#
b10010011 +$
b0010000000010 3$
b10000010 ;$
b11110010 C$
b11101110 K$
b11011110101011011100001010110111 %%
b10 E%
b0010000000001 U%
b10110111 ]%
b0000000000001 m%
b11000010 ?&
b10101101 o&
b11011110 A'
b1100001010110111 i'
b1101111010101101 q'
b00000000000000000000000000000010 )+
b00000000000000000001000000001000 1+
b0010 I+
1Q+
#6
0Q+
b00000000000000000000000000001000 a+
#7
b00000000010101010000000000100011 =!
b00000000010101010000000000100011 E!
b00000000000000000001000000001100 q#
b00000000010101010000000000100011 y#
b00100011 +$
b0010000000011 3$
b00000000 ;$
b01010101 C$
b00000000 K$
b11101110111100101000001010010011 %%
b11 E%
b0010000000010 U%
b10010011 ]%
b0000000000010 m%
b10000010 ?&
b11110010 o&
b11101110 A'
b1000001010010011 i'
b1110111011110010 q'
b00000000000000000000000000000011 )+
b00000000000000000001000000001100 1+
b0011 I+
1Q+
#8
0Q+
b00000000000000000000000000001100 a+
#9
1%!
b00000000000001010010001100000011 =!
b00000000000001010010001100000011 E!
b00000000000000000001000000010000 q#
b00000000000001010010001100000011 y#
b00000011 +$
b0010000000100 3$
b00100011 ;$
b00000101 C$
b00000000010101010000000000100011 %%
1=%
b00 E%
b0010000000011 U%
b00100011 ]%
b0000000000011 m%
b00000000 ?&
b01010101 o&
b00000000 A'
b0000000000100011 i'
b0000000001010101 q'
b00000000000000000000000000000100 )+
b00000000000000000001000000010000 1+
b0100 I+
1Q+
#10
0Q+
b00000000000000000000000000010000 a+
#11
0%!
b00000001010100000000100100010011 =!
b00000001010100000000100100010011 E!
b00000000000000000001000000010100 q#
b00000001010100000000100100010011 y#
b00010011 +$
b0010000000101 3$
b00001001 ;$
b01010000 C$
b00000001 K$
b00000000000001010010001100000011 %%
0=%
b01 E%
b0010000000100 U%
b00000011 ]%
b0000000000100 m%
b00100011 ?&
b00000101 o&
b0010001100000011 i'
b0000000000000101 q'
b00000000000000000000000000000101 )+
b00000000000000000001000000010100 1+
b0101 I+
1Q+
#12
0Q+
b00000000000000000000000000010100 a+
#13
b00000001001001010000000010100011 =!
b00000001001001010000000010100011 E!
b00000000000000000001000000011000 q#
b00000001001001010000000010100011 y#
b10100011 +$
b0010000000110 3$
b00000000 ;$
b00100101 C$
b00000001010100000000100100010011 %%
b10 E%
b0010000000101 U%
b00010011 ]%
b0000000000101 m%
b00001001 ?&
b01010000 o&
b00000001 A'
b0000100100010011 i'
b0000000101010000 q'
b00000000000000000000000000000110 )+
b00000000000000000001000000011000 1+
b0110 I+
1Q+
#14
0Q+
b00000000000000000000000000011000 a+
#15
b00000000000001010010000010000011 =!
b00000000000001010010000010000011 E!
b00000000000000000001000000011100 q#
b00000000000001010010000010000011 y#
b10000011 +$
b0010000000111 3$
b00100000 ;$
b00000101 C$
b00000000 K$
b00000001001001010000000010100011 %%
b11 E%
b0010000000110 U%
b10100011 ]%
b0000000000110 m%
b00000000 ?&
b00100101 o&
b0000000010100011 i'
b0000000100100101 q'
b00000000000000000000000000000111 )+
b00000000000000000001000000011100 1+
b0111 I+
1Q+
#16
0Q+
b00000000000000000000000000011100 a+
#17
1%!
b00000000000000000000000001101111 =!
b00000000000000000000000001101111 E!
b00000000000000000001000000100000 q#
b00000000000000000000000001101111 y#
b01101111 +$
b0010000001000 3$
b00000000 ;$
b00000000 C$
b00000000000001010010000010000011 %%
1=%
b00 E%
b0010000000111 U%
b10000011 ]%
b0000000000111 m%
b00100000 ?&
b00000101 o&
b00000000 A'
b0010000010000011 i'
b0000000000000101 q'
b00000000000000000000000000001000 )+
b00000000000000000001000000100000 1+
b1000 I+
1Q+
#18
0Q+
b00000000000000000000000000100000 a+
#19
0%!
b00000000000000000000000000010011 =!
b00000000000000000000000000010011 E!
b00000000000000000001000000100100 q#
b00000000000000000000000000010011 y#
b00010011 +$
b0010000001001 3$
b00000000000000000000000001101111 %%
0=%
b01 E%
b0010000001000 U%
b01101111 ]%
b0000000001000 m%
b00000000 ?&
b00000000 o&
b0000000001101111 i'
b0000000000000000 q'
b00000000000000000000000000001001 )+
b00000000000000000001000000100100 1+
b1001 I+
1Q+
#20
0Q+
b00000000000000000000000000100100 a+
