test_run_dir/Execution_of_Single_Cycle_CPU_should_execute_correctly/Execute.vcd
$version Generated by VerilatedVcd $end
$date Wed Nov 22 11:30:59 2023
 $end
$timescale   1ns $end

 $scope module TOP $end
  $var wire  1 3 clock $end
  $var wire  1 k io_aluop1_source $end
  $var wire  1 s io_aluop2_source $end
  $var wire 32 -! io_if_jump_address [31:0] $end
  $var wire  1 %! io_if_jump_flag $end
  $var wire 32 c io_immediate [31:0] $end
  $var wire 32 C io_instruction [31:0] $end
  $var wire 32 K io_instruction_address [31:0] $end
  $var wire 32 { io_mem_alu_result [31:0] $end
  $var wire 32 S io_reg1_data [31:0] $end
  $var wire 32 [ io_reg2_data [31:0] $end
  $var wire  1 ; reset $end
  $scope module Execute $end
   $var wire  4 # alu_ctrl_io_alu_funct [3:0] $end
   $var wire  3 E! alu_ctrl_io_funct3 [2:0] $end
   $var wire  7 M! alu_ctrl_io_funct7 [6:0] $end
   $var wire  7 =! alu_ctrl_io_opcode [6:0] $end
   $var wire  4 # alu_io_func [3:0] $end
   $var wire 32 S alu_io_op1 [31:0] $end
   $var wire 32 + alu_io_op2 [31:0] $end
   $var wire 32 5! alu_io_result [31:0] $end
   $var wire  1 3 clock $end
   $var wire  3 E! funct3 [2:0] $end
   $var wire  1 k io_aluop1_source $end
   $var wire  1 s io_aluop2_source $end
   $var wire 32 -! io_if_jump_address [31:0] $end
   $var wire  1 %! io_if_jump_flag $end
   $var wire 32 c io_immediate [31:0] $end
   $var wire 32 C io_instruction [31:0] $end
   $var wire 32 K io_instruction_address [31:0] $end
   $var wire 32 { io_mem_alu_result [31:0] $end
   $var wire 32 S io_reg1_data [31:0] $end
   $var wire 32 [ io_reg2_data [31:0] $end
   $var wire  7 =! opcode [6:0] $end
   $var wire  1 ; reset $end
   $scope module alu $end
    $var wire  4 # io_func [3:0] $end
    $var wire 32 S io_op1 [31:0] $end
    $var wire 32 + io_op2 [31:0] $end
    $var wire 32 5! io_result [31:0] $end
   $upscope $end
   $scope module alu_ctrl $end
    $var wire  4 # io_alu_funct [3:0] $end
    $var wire  3 E! io_funct3 [2:0] $end
    $var wire  7 M! io_funct7 [6:0] $end
    $var wire  7 =! io_opcode [6:0] $end
   $upscope $end
  $upscope $end
 $upscope $end
$enddefinitions $end


#0
b0000 #
b00000000000000000000000000000000 +
03
1;
b00000000000000000000000000000000 C
b00000000000000000000000000000000 K
b00000000000000000000000000000000 S
b00000000000000000000000000000000 [
b00000000000000000000000000000000 c
0k
0s
b00000000000000000000000000000000 {
0%!
b00000000000000000000000000000000 -!
b00000000000000000000000000000000 5!
b0000000 =!
b000 E!
b0000000 M!
#1
13
#2
b0001 #
b00001001000011001011100100010101 +
03
0;
b00000000000100010000000110110011 C
b00001000010010001011000100000110 S
b00001001000011001011100100010101 [
b00010001010101010110101000011011 {
b00010001010101010110101000011011 5!
b0110011 =!
#3
13
#4
b00010001001111100110110100110101 +
03
b00000011110001110000011010100110 S
b00010001001111100110110100110101 [
b00010101000001010111001111011011 {
b00010101000001010111001111011011 5!
#5
13
#6
b00011000100001010010101000110010 +
03
b00000011110101101111111100110000 S
b00011000100001010010101000110010 [
b00011100010111000010100101100010 {
b00011100010111000010100101100010 5!
#7
13
#8
b00010010111010000010111100110101 +
03
b00010011100010011010010011110011 S
b00010010111010000010111100110101 [
b00100110011100011101010000101000 {
b00100110011100011101010000101000 5!
#9
13
#10
b00000001110111100010111110110100 +
03
b00001101101011111000000000111011 S
b00000001110111100010111110110100 [
b00001111100011011010111111101111 {
b00001111100011011010111111101111 5!
#11
13
#12
b00001100110010100010001011001110 +
03
b00010101001101110100111100101011 S
b00001100110010100010001011001110 [
b00100010000000010111000111111001 {
b00100010000000010111000111111001 5!
#13
13
#14
b00001010111100001011000110010000 +
03
b00000010100101101100101000000001 S
b00001010111100001011000110010000 [
b00001101100001110111101110010001 {
b00001101100001110111101110010001 5!
#15
13
#16
b00011000101101000010001001010111 +
03
b00001001110101011110010101111000 S
b00011000101101000010001001010111 [
b00100010100010100000011111001111 {
b00100010100010100000011111001111 5!
#17
13
#18
b00011000001001111000010011001000 +
03
b00001000011001010100111111010001 S
b00011000001001111000010011001000 [
b00100000100011001101010010011001 {
b00100000100011001101010010011001 5!
#19
13
#20
b00010101010110110010101000000001 +
03
b00001111000000011110110010010011 S
b00010101010110110010101000000001 [
b00100100010111010001011010010100 {
b00100100010111010001011010010100 5!
#21
13
#22
b00010010110010100111001110001110 +
03
b00001010111111100001000111011101 S
b00010010110010100111001110001110 [
b00011101110010001000010101101011 {
b00011101110010001000010101101011 5!
#23
13
#24
b00001010101001110011101000100010 +
03
b00010111011010111111011101001010 S
b00001010101001110011101000100010 [
b00100010000100110011000101101100 {
b00100010000100110011000101101100 5!
#25
13
#26
b00001101101100011111111100110010 +
03
b00000001100100110001000110010100 S
b00001101101100011111111100110010 [
b00001111010001010001000011000110 {
b00001111010001010001000011000110 5!
#27
13
#28
b00010001000011000101001010001100 +
03
b00000101001001010011101000110000 S
b00010001000011000101001010001100 [
b00010110001100011000110010111100 {
b00010110001100011000110010111100 5!
#29
13
#30
b00000000000010111101001100111100 +
03
b00011000001011101001010001011001 S
b00000000000010111101001100111100 [
b00011000001110100110011110010101 {
b00011000001110100110011110010101 5!
#31
13
#32
b00001011110100000110001001111100 +
03
b00000010111101110001001001011011 S
b00001011110100000110001001111100 [
b00001110110001110111010011010111 {
b00001110110001110111010011010111 5!
#33
13
#34
b00010111111000111000100101001101 +
03
b00001100001101100110101111101101 S
b00010111111000111000100101001101 [
b00100100000110011111010100111010 {
b00100100000110011111010100111010 5!
#35
13
#36
b00000100110111000000110011101110 +
03
b00010011000000001001010010101011 S
b00000100110111000000110011101110 [
b00010111110111001010000110011001 {
b00010111110111001010000110011001 5!
#37
13
#38
b00000010110111010010001110001010 +
03
b00000000010100010000011111011000 S
b00000010110111010010001110001010 [
b00000011001011100010101101100010 {
b00000011001011100010101101100010 5!
#39
13
#40
b00010110001110010000000101010001 +
03
b00011000010100111110111011001101 S
b00010110001110010000000101010001 [
b00101110100011001111000000011110 {
b00101110100011001111000000011110 5!
#41
13
#42
b00000001111101110011111010001111 +
03
b00000001000111001101100010011100 S
b00000001111101110011111010001111 [
b00000011000101000001011100101011 {
b00000011000101000001011100101011 5!
#43
13
#44
b00001001010100101011110111010100 +
03
b00000111100000011101111111000010 S
b00001001010100101011110111010100 [
b00010000110101001001110110010110 {
b00010000110101001001110110010110 5!
#45
13
#46
b00000101011111010101000101111011 +
03
b00010100111010010101101010010010 S
b00000101011111010101000101111011 [
b00011010011001101010110000001101 {
b00011010011001101010110000001101 5!
#47
13
#48
b00001110011000101001000111000010 +
03
b00010111000101011000110101001111 S
b00001110011000101001000111000010 [
b00100101011110000001111100010001 {
b00100101011110000001111100010001 5!
#49
13
#50
b00010001011001010110011100010100 +
03
b00000001000111011011010100101001 S
b00010001011001010110011100010100 [
b00010010100000110001110000111101 {
b00010010100000110001110000111101 5!
#51
13
#52
b00010010111001111110001110100100 +
03
b00010110101010111111101110011000 S
b00010010111001111110001110100100 [
b00101001100100111101111100111100 {
b00101001100100111101111100111100 5!
#53
13
#54
b00001111100001110101100111001010 +
03
b00000110001111001110111111011001 S
b00001111100001110101100111001010 [
b00010101110001000100100110100011 {
b00010101110001000100100110100011 5!
#55
13
#56
b00001010001100111110011101100011 +
03
b00010100110110100000101011111011 S
b00001010001100111110011101100011 [
b00011111000011011111001001011110 {
b00011111000011011111001001011110 5!
#57
13
#58
b00010000111000110001011100010101 +
03
b00000010010011000010110001111100 S
b00010000111000110001011100010101 [
b00010011001011110100001110010001 {
b00010011001011110100001110010001 5!
#59
13
#60
b00001010110001011101010101111101 +
03
b00010001010100000100111111011110 S
b00001010110001011101010101111101 [
b00011100000101100010010101011011 {
b00011100000101100010010101011011 5!
#61
13
#62
b00001001111110001101110010000000 +
03
b00001011100001100001111111110100 S
b00001001111110001101110010000000 [
b00010101011111101111110001110100 {
b00010101011111101111110001110100 5!
#63
13
#64
b00001111001001111010010010100100 +
03
b00011001001101010100001110010101 S
b00001111001001111010010010100100 [
b00101000010111001110100000111001 {
b00101000010111001110100000111001 5!
#65
13
#66
b00000010100110001001010100011011 +
03
b00001110111001010100111000011000 S
b00000010100110001001010100011011 [
b00010001011111011110001100110011 {
b00010001011111011110001100110011 5!
#67
13
#68
b00001110010001111011011011000110 +
03
b00001110110011111110010111010101 S
b00001110010001111011011011000110 [
b00011101000101111001110010011011 {
b00011101000101111001110010011011 5!
#69
13
#70
b00000111101010010111010011010110 +
03
b00001111100100110111100010100001 S
b00000111101010010111010011010110 [
b00010111001111001110110101110111 {
b00010111001111001110110101110111 5!
#71
13
#72
b00010011100111011101101111000111 +
03
b00011001000111101011111010000001 S
b00010011100111011101101111000111 [
b00101100101111001001101001001000 {
b00101100101111001001101001001000 5!
#73
13
#74
b00000001000101110110001101011010 +
03
b00000010111011100111101010011010 S
b00000001000101110110001101011010 [
b00000100000001011101110111110100 {
b00000100000001011101110111110100 5!
#75
13
#76
b00001101101100111101100111111000 +
03
b00000101011011110100010000001110 S
b00001101101100111101100111111000 [
b00010011001000110001111000000110 {
b00010011001000110001111000000110 5!
#77
13
#78
b00000111010010110011010010111010 +
03
b00011000101111000000111101110111 S
b00000111010010110011010010111010 [
b00100000000001110100010000110001 {
b00100000000001110100010000110001 5!
#79
13
#80
b00001100010101111010010101010001 +
03
b00001100100111100001110001100011 S
b00001100010101111010010101010001 [
b00011000111101011100000110110100 {
b00011000111101011100000110110100 5!
#81
13
#82
b00010000001000100001101110101111 +
03
b00001101000001100010000000101111 S
b00010000001000100001101110101111 [
b00011101001010000011101111011110 {
b00011101001010000011101111011110 5!
#83
13
#84
b00010100011111111101001110110000 +
03
b00010001001010000010101110001111 S
b00010100011111111101001110110000 [
b00100101101001111111111100111111 {
b00100101101001111111111100111111 5!
#85
13
#86
b00000011000110000010101000001110 +
03
b00010000110010110000101001011000 S
b00000011000110000010101000001110 [
b00010011111000110011010001100110 {
b00010011111000110011010001100110 5!
#87
13
#88
b00010101001011111110001101100001 +
03
b00010101001110000010100001100110 S
b00010101001011111110001101100001 [
b00101010011010000000101111000111 {
b00101010011010000000101111000111 5!
#89
13
#90
b00000010000001111010000101000011 +
03
b00000111110110101111101110000001 S
b00000010000001111010000101000011 [
b00001001111000101001110011000100 {
b00001001111000101001110011000100 5!
#91
13
#92
b00010101101011100001111110001111 +
03
b00011000010000001010100011110001 S
b00010101101011100001111110001111 [
b00101101111011101100100010000000 {
b00101101111011101100100010000000 5!
#93
13
#94
b00010111000111110010011011011010 +
03
b00001010010010110101010111110000 S
b00010111000111110010011011011010 [
b00100001011010100111110011001010 {
b00100001011010100111110011001010 5!
#95
13
#96
b00010001101110000111000001000001 +
03
b00001001111001010011011000010011 S
b00010001101110000111000001000001 [
b00011011100111011010011001010100 {
b00011011100111011010011001010100 5!
#97
13
#98
b00000100111000100001011100101110 +
03
b00001110111001111110010010110011 S
b00000100111000100001011100101110 [
b00010011110010011111101111100001 {
b00010011110010011111101111100001 5!
#99
13
#100
b00001000110010010000101011111100 +
03
b00000100011001111010011000110110 S
b00001000110010010000101011111100 [
b00001101001100001011000100110010 {
b00001101001100001011000100110010 5!
#101
13
#102
b00000110001110011000110000000011 +
03
b00010111000100010101010010100011 S
b00000110001110011000110000000011 [
b00011101010010101110000010100110 {
b00011101010010101110000010100110 5!
#103
13
#104
b00001101101110000010111101100010 +
03
b00010110000011000110001000000110 S
b00001101101110000010111101100010 [
b00100011110001001001000101101000 {
b00100011110001001001000101101000 5!
#105
13
#106
b00000001100110001001001001010110 +
03
b00001011010001101100111111100000 S
b00000001100110001001001001010110 [
b00001100110111110110001000110110 {
b00001100110111110110001000110110 5!
#107
13
#108
b00001111010000111010000011011000 +
03
b00011000110011000100100101100000 S
b00001111010000111010000011011000 [
b00101000000011111110101000111000 {
b00101000000011111110101000111000 5!
#109
13
#110
b00001001100110101111011000011110 +
03
b00001111000010011000101010011010 S
b00001001100110101111011000011110 [
b00011000101001001000000010111000 {
b00011000101001001000000010111000 5!
#111
13
#112
b00001001001111001110010110001101 +
03
b00001101001111101001111001111001 S
b00001001001111001110010110001101 [
b00010110011110111000010000000110 {
b00010110011110111000010000000110 5!
#113
13
#114
b00010100111111010110100100101010 +
03
b00010101000110011110001010001110 S
b00010100111111010110100100101010 [
b00101010000101110100101110111000 {
b00101010000101110100101110111000 5!
#115
13
#116
b00010001000011000101011100011010 +
03
b00001000000111010101100101000111 S
b00010001000011000101011100011010 [
b00011001001010011011000001100001 {
b00011001001010011011000001100001 5!
#117
13
#118
b00000000001010001100110000000011 +
03
b00001000000001000001111001110100 S
b00000000001010001100110000000011 [
b00001000001011001110101001110111 {
b00001000001011001110101001110111 5!
#119
13
#120
b00010000101010110101110001010100 +
03
b00010101111100011100100000101110 S
b00010000101010110101110001010100 [
b00100110100111010010010010000010 {
b00100110100111010010010010000010 5!
#121
13
#122
b00000111101101110010010000011000 +
03
b00000100110011010101001000111110 S
b00000111101101110010010000011000 [
b00001100100001000111011001010110 {
b00001100100001000111011001010110 5!
#123
13
#124
b00001000101100010111100101010010 +
03
b00001000010100100011010011011000 S
b00001000101100010111100101010010 [
b00010001000000111010111000101010 {
b00010001000000111010111000101010 5!
#125
13
#126
b00000111111000010011010100010111 +
03
b00000100000011010111001011011100 S
b00000111111000010011010100010111 [
b00001011111011101010011111110011 {
b00001011111011101010011111110011 5!
#127
13
#128
b00010111001010101100001001001000 +
03
b00000111011001110101001101000010 S
b00010111001010101100001001001000 [
b00011110100100100001010110001010 {
b00011110100100100001010110001010 5!
#129
13
#130
b00001001010101011100101100101001 +
03
b00001000001000110110000010111011 S
b00001001010101011100101100101001 [
b00010001011110010010101111100100 {
b00010001011110010010101111100100 5!
#131
13
#132
b00001000011011111110101011010000 +
03
b00000001101011111010001011111100 S
b00001000011011111110101011010000 [
b00001010000111111000110111001100 {
b00001010000111111000110111001100 5!
#133
13
#134
b00011001000101010101000001111011 +
03
b00010100111010101000101010001100 S
b00011001000101010101000001111011 [
b00101101111111111101101100000111 {
b00101101111111111101101100000111 5!
#135
13
#136
b00000010011000100011111101011100 +
03
b00000110111101010000110001001001 S
b00000010011000100011111101011100 [
b00001001010101110100101110100101 {
b00001001010101110100101110100101 5!
#137
13
#138
b00010111111101100110110100100101 +
03
b00001010011010000110101001010110 S
b00010111111101100110110100100101 [
b00100010010111101101011101111011 {
b00100010010111101101011101111011 5!
#139
13
#140
b00000011000110110111101100011111 +
03
b00001011001011100100011101010110 S
b00000011000110110111101100011111 [
b00001110010010011100001001110101 {
b00001110010010011100001001110101 5!
#141
13
#142
b00000110110100110100000000000100 +
03
b00001001001001000101010001011110 S
b00000110110100110100000000000100 [
b00001111111101111001010001100010 {
b00001111111101111001010001100010 5!
#143
13
#144
b00010001001011100010000111011011 +
03
b00000011011001000010001111011101 S
b00010001001011100010000111011011 [
b00010100100100100100010110111000 {
b00010100100100100100010110111000 5!
#145
13
#146
b00010011010000110100001100000001 +
03
b00000111010111100000000011111001 S
b00010011010000110100001100000001 [
b00011010101000010100001111111010 {
b00011010101000010100001111111010 5!
#147
13
#148
b00010011101001001010011111010101 +
03
b00000110110001010100000111101001 S
b00010011101001001010011111010101 [
b00011010011010011110100110111110 {
b00011010011010011110100110111110 5!
#149
13
#150
b00001010000110000010000000010001 +
03
b00001001111010010000010000010101 S
b00001010000110000010000000010001 [
b00010100000000010010010000100110 {
b00010100000000010010010000100110 5!
#151
13
#152
b00000111100010000000111011011100 +
03
b00010001001010110100000010110110 S
b00000111100010000000111011011100 [
b00011000101100110100111110010010 {
b00011000101100110100111110010010 5!
#153
13
#154
b00001101011001001000110000001001 +
03
b00000111000000010111101110101101 S
b00001101011001001000110000001001 [
b00010100011001100000011110110110 {
b00010100011001100000011110110110 5!
#155
13
#156
b00000001010010111101111111110010 +
03
b00000101011101001001111111000010 S
b00000001010010111101111111110010 [
b00000110110000000111111110110100 {
b00000110110000000111111110110100 5!
#157
13
#158
b00000111111110011111001001011001 +
03
b00011000110000010110111101001000 S
b00000111111110011111001001011001 [
b00100000101110110110000110100001 {
b00100000101110110110000110100001 5!
#159
13
#160
b00011000100101001101101010000111 +
03
b00001011011100100000111010101101 S
b00011000100101001101101010000111 [
b00100100000001101110100100110100 {
b00100100000001101110100100110100 5!
#161
13
#162
b00001111010011101100010110010111 +
03
b00011000000111110110100010011001 S
b00001111010011101100010110010111 [
b00100111011011100010111000110000 {
b00100111011011100010111000110000 5!
#163
13
#164
b00000010001010010110001110111000 +
03
b00001110001011011001010110101011 S
b00000010001010010110001110111000 [
b00010000010101101111100101100011 {
b00010000010101101111100101100011 5!
#165
13
#166
b00000111010000010000100000000010 +
03
b00010100111000111001111111100110 S
b00000111010000010000100000000010 [
b00011100001001001010011111101000 {
b00011100001001001010011111101000 5!
#167
13
#168
b00000100011101100100110010001100 +
03
b00010000110010010100011010111001 S
b00000100011101100100110010001100 [
b00010101001111111001001101000101 {
b00010101001111111001001101000101 5!
#169
13
#170
b00000100111001100011010001001111 +
03
b00001111111000111000100011100110 S
b00000100111001100011010001001111 [
b00010100110010011011110100110101 {
b00010100110010011011110100110101 5!
#171
13
#172
b00010101111111110111101110101101 +
03
b00001001001101010011011111011001 S
b00010101111111110111101110101101 [
b00011111001101001011001110000110 {
b00011111001101001011001110000110 5!
#173
13
#174
b00010010011001011111110111101000 +
03
b00000111001110000011100111110000 S
b00010010011001011111110111101000 [
b00011001100111100011011111011000 {
b00011001100111100011011111011000 5!
#175
13
#176
b00010100101111110001101110011101 +
03
b00010101001111100100110010010001 S
b00010100101111110001101110011101 [
b00101001111111010110100000101110 {
b00101001111111010110100000101110 5!
#177
13
#178
b00001010001101000011101100110111 +
03
b00010010011111100000010011000010 S
b00001010001101000011101100110111 [
b00011100101100100011111111111001 {
b00011100101100100011111111111001 5!
#179
13
#180
b00000010101111111100100000010101 +
03
b00000000010001100100111000011111 S
b00000010101111111100100000010101 [
b00000011000001100001011000110100 {
b00000011000001100001011000110100 5!
#181
13
#182
b00000110100010011011000011101010 +
03
b00000010001011111000110001011110 S
b00000110100010011011000011101010 [
b00001000101110010011110101001000 {
b00001000101110010011110101001000 5!
#183
13
#184
b00001100000011110000101011010111 +
03
b00010000010000000110101011100000 S
b00001100000011110000101011010111 [
b00011100010011110111010110110111 {
b00011100010011110111010110110111 5!
#185
13
#186
b00000011010101011000001110101111 +
03
b00010111110000111111001001000010 S
b00000011010101011000001110101111 [
b00011011000110010111010111110001 {
b00011011000110010111010111110001 5!
#187
13
#188
b00000110011000111101011011011001 +
03
b00000010010000011001110111000110 S
b00000110011000111101011011011001 [
b00001000101001010111010010011111 {
b00001000101001010111010010011111 5!
#189
13
#190
b00000101010001100001011011011000 +
03
b00001010010010111001000101101010 S
b00000101010001100001011011011000 [
b00001111100100011010100001000010 {
b00001111100100011010100001000010 5!
#191
13
#192
b00001000011100101011001110011010 +
03
b00000111001101011101011110011110 S
b00001000011100101011001110011010 [
b00001111101010001000101100111000 {
b00001111101010001000101100111000 5!
#193
13
#194
b00000111001010111011001001011001 +
03
b00010110000000110001110011101110 S
b00000111001010111011001001011001 [
b00011101001011101100111101000111 {
b00011101001011101100111101000111 5!
#195
13
#196
b00000001111011101001101010100010 +
03
b00001000100101100101010110101111 S
b00000001111011101001101010100010 [
b00001010100001001111000001010001 {
b00001010100001001111000001010001 5!
#197
13
#198
b00010101111000110011101101110110 +
03
b00001011101000001111010111010111 S
b00010101111000110011101101110110 [
b00100001100001000011000101001101 {
b00100001100001000011000101001101 5!
#199
13
#200
b00000010110111111100000010011100 +
03
b00010111001001100110001011101010 S
b00000010110111111100000010011100 [
b00011010000001100010001110000110 {
b00011010000001100010001110000110 5!
#201
13
#202
b00010110010110100101001001110110 +
03
b00000010101101110011010111100011 S
b00010110010110100101001001110110 [
b00011001000100011000100001011001 {
b00011001000100011000100001011001 5!
#203
13
#204
b00000000000000000000000000000010 +
03
b00000000001000001000000101100011 C
b00000000000000000000000000000010 K
b00000000000000000000000000000010 c
1k
1s
b00000010101101110011010111100101 {
b00000000000000000000000000000100 -!
b00000010101101110011010111100101 5!
b1100011 =!
#205
13
#206
03
b00000000000000000000000000001001 S
b00000000000000000000000000001001 [
b00000000000000000000000000001011 {
1%!
b00000000000000000000000000001011 5!
#207
13
#208
03
b00000000000000000000000000010011 [
0%!
